Running
undefined
[90mGET /node/express/lostandfound/notification?category=Elektro&date=1525635965007 [32m200 [90m778ms - 606b[0m
[90mGET /node/express/lostandfound/notification?category=Elektro&date=1525635965007 [32m200 [90m778ms - 606b[0m
undefined
[90mGET /node/express/lostandfound/notification?category=Elektro&date=1525635965007 [32m200 [90m109ms - 606b[0m
[90mGET /node/express/lostandfound/notification?category=Elektro&date=1525635965007 [32m200 [90m109ms - 606b[0m
undefined
[90mGET /node/express/lostandfound/notification?category=Elektro&date=1525635965007 [32m200 [90m110ms - 606b[0m
[90mGET /node/express/lostandfound/notification?category=Elektro&date=1525635965007 [32m200 [90m110ms - 606b[0m
undefined
[90mGET /node/express/lostandfound/notification?category=Elektro&date=1525635965007 [32m200 [90m109ms - 606b[0m
[90mGET /node/express/lostandfound/notification?category=Elektro&date=1525635965007 [32m200 [90m109ms - 606b[0m
undefined
[90mGET /node/express/lostandfound/notification?category=Elektro&date=1525635965007 [32m200 [90m109ms - 606b[0m
[90mGET /node/express/lostandfound/notification?category=Elektro&date=1525635965007 [32m200 [90m109ms - 606b[0m
undefined
[90mGET /node/express/lostandfound/notification?category=Elektro&date=1525635965007 [32m200 [90m109ms - 606b[0m
[90mGET /node/express/lostandfound/notification?category=Elektro&date=1525635965007 [32m200 [90m109ms - 606b[0m
undefined
[90mGET /node/express/lostandfound/notification?category=Elektro&date=1525635965007 [32m200 [90m141ms - 606b[0m
[90mGET /node/express/lostandfound/notification?category=Elektro&date=1525635965007 [32m200 [90m141ms - 606b[0m
undefined
[90mGET /node/express/lostandfound/notification?category=Elektro&date=1525635965007 [32m200 [90m157ms - 606b[0m
[90mGET /node/express/lostandfound/notification?category=Elektro&date=1525635965007 [32m200 [90m157ms - 606b[0m
undefined
[90mGET /node/express/lostandfound/notification?category=Elektro&date=1525635965007 [32m200 [90m110ms - 606b[0m
[90mGET /node/express/lostandfound/notification?category=Elektro&date=1525635965007 [32m200 [90m110ms - 606b[0m
undefined
[90mGET /node/express/lostandfound/notification?category=Elektro&date=1525635965007 [32m200 [90m109ms - 606b[0m
[90mGET /node/express/lostandfound/notification?category=Elektro&date=1525635965007 [32m200 [90m109ms - 606b[0m
undefined
[90mGET /node/express/lostandfound/notification?category=Elektro&date=1525635965007 [32m200 [90m109ms - 606b[0m
[90mGET /node/express/lostandfound/notification?category=Elektro&date=1525635965007 [32m200 [90m125ms - 606b[0m
undefined
[90mGET /node/express/lostandfound/notification?category=Elektro&date=1525635965007 [32m200 [90m109ms - 606b[0m
[90mGET /node/express/lostandfound/notification?category=Elektro&date=1525635965007 [32m200 [90m109ms - 606b[0m
undefined
[90mGET /node/express/lostandfound/notification?category=Elektro&date=1525635965007 [32m200 [90m203ms - 606b[0m
[90mGET /node/express/lostandfound/notification?category=Elektro&date=1525635965007 [32m200 [90m203ms - 606b[0m
undefined
[90mGET /node/express/lostandfound/notification?category=Elektro&date=1525635965007 [32m200 [90m109ms - 606b[0m
[90mGET /node/express/lostandfound/notification?category=Elektro&date=1525635965007 [32m200 [90m109ms - 606b[0m
undefined
[90mGET /node/express/lostandfound/notification?category=Elektro&date=1525635965007 [32m200 [90m110ms - 606b[0m
[90mGET /node/express/lostandfound/notification?category=Elektro&date=1525635965007 [32m200 [90m110ms - 606b[0m
undefined
[90mGET /node/express/lostandfound/notification?category=Elektro&date=1525635965007 [32m200 [90m109ms - 606b[0m
[90mGET /node/express/lostandfound/notification?category=Elektro&date=1525635965007 [32m200 [90m109ms - 606b[0m
undefined
[90mGET /node/express/lostandfound/notification?category=Elektro&date=1525635965007 [32m200 [90m109ms - 606b[0m
[90mGET /node/express/lostandfound/notification?category=Elektro&date=1525635965007 [32m200 [90m109ms - 606b[0m
undefined
[90mGET /node/express/lostandfound/notification?category=Elektro&date=1525635965007 [32m200 [90m110ms - 606b[0m
[90mGET /node/express/lostandfound/notification?category=Elektro&date=1525635965007 [32m200 [90m110ms - 606b[0m
undefined
[90mGET /node/express/lostandfound/notification?category=Elektro&date=1525635965007 [32m200 [90m109ms - 606b[0m
[90mGET /node/express/lostandfound/notification?category=Elektro&date=1525635965007 [32m200 [90m109ms - 606b[0m
undefined
[90mGET /node/express/lostandfound/notification?category=Elektro&date=1525635965007 [32m200 [90m125ms - 606b[0m
[90mGET /node/express/lostandfound/notification?category=Elektro&date=1525635965007 [32m200 [90m125ms - 606b[0m
[90mPOST /node/express/lostandfound/upload [32m200 [90m266ms - 26b[0m
[90mPOST /node/express/lostandfound/upload [32m200 [90m360ms - 26b[0m
undefined
[90mGET /node/express/lostandfound/notification?category=Elektro&date=1525635965007 [32m200 [90m203ms - 981b[0m
[90mGET /node/express/lostandfound/notification?category=Elektro&date=1525635965007 [32m200 [90m203ms - 981b[0m
Elektro
[90mGET /node/express/lostandfound/by-category?param=Elektro [32m200 [90m109ms - 3.24kb[0m
[90mGET /node/express/lostandfound/by-category?param=Elektro [32m200 [90m109ms - 3.24kb[0m
undefined
[90mGET /node/express/lostandfound/notification?category=Elektro&date=1525635965007 [32m200 [90m109ms - 981b[0m
[90mGET /node/express/lostandfound/notification?category=Elektro&date=1525635965007 [32m200 [90m109ms - 981b[0m
undefined
[90mGET /node/express/lostandfound/notification?category=Elektro&date=1525635965007 [32m200 [90m109ms - 981b[0m
[90mGET /node/express/lostandfound/notification?category=Elektro&date=1525635965007 [32m200 [90m109ms - 981b[0m
undefined
[90mGET /node/express/lostandfound/notification?category=Elektro&date=1525635965007 [32m200 [90m110ms - 981b[0m
[90mGET /node/express/lostandfound/notification?category=Elektro&date=1525635965007 [32m200 [90m110ms - 981b[0m
undefined
[90mGET /node/express/lostandfound/notification?category=Elektro&date=1525635965007 [32m200 [90m109ms - 981b[0m
[90mGET /node/express/lostandfound/notification?category=Elektro&date=1525635965007 [32m200 [90m109ms - 981b[0m
undefined
[90mGET /node/express/lostandfound/notification?category=Elektro&date=1525635965007 [32m200 [90m109ms - 981b[0m
[90mGET /node/express/lostandfound/notification?category=Elektro&date=1525635965007 [32m200 [90m109ms - 981b[0m
undefined
[90mGET /node/express/lostandfound/notification?category=Elektro&date=1525635965007 [32m200 [90m110ms - 981b[0m
[90mGET /node/express/lostandfound/notification?category=Elektro&date=1525635965007 [32m200 [90m110ms - 981b[0m
undefined
[90mGET /node/express/lostandfound/notification?category=Elektro&date=1525635965007 [32m200 [90m109ms - 981b[0m
[90mGET /node/express/lostandfound/notification?category=Elektro&date=1525635965007 [32m200 [90m109ms - 981b[0m
undefined
[90mGET /node/express/lostandfound/notification?category=Elektro&date=1525635965007 [32m200 [90m110ms - 981b[0m
[90mGET /node/express/lostandfound/notification?category=Elektro&date=1525635965007 [32m200 [90m110ms - 981b[0m
undefined
[90mGET /node/express/lostandfound/notification?category=Elektro&date=1525635965007 [32m200 [90m109ms - 981b[0m
[90mGET /node/express/lostandfound/notification?category=Elektro&date=1525635965007 [32m200 [90m109ms - 981b[0m
undefined
[90mGET /node/express/lostandfound/notification?category=Elektro&date=1525635965007 [32m200 [90m109ms - 981b[0m
[90mGET /node/express/lostandfound/notification?category=Elektro&date=1525635965007 [32m200 [90m109ms - 981b[0m
undefined
[90mGET /node/express/lostandfound/notification?category=Elektro&date=1525635965007 [32m200 [90m110ms - 981b[0m
[90mGET /node/express/lostandfound/notification?category=Elektro&date=1525635965007 [32m200 [90m110ms - 981b[0m
undefined
[90mGET /node/express/lostandfound/notification?category=Elektro&date=1525635965007 [32m200 [90m109ms - 981b[0m
[90mGET /node/express/lostandfound/notification?category=Elektro&date=1525635965007 [32m200 [90m109ms - 981b[0m
undefined
[90mGET /node/express/lostandfound/notification?category=Elektro&date=1525635965007 [32m200 [90m110ms - 981b[0m
[90mGET /node/express/lostandfound/notification?category=Elektro&date=1525635965007 [32m200 [90m110ms - 981b[0m
undefined
[90mGET /node/express/lostandfound/notification?category=Elektro&date=1525635965007 [32m200 [90m109ms - 981b[0m
[90mGET /node/express/lostandfound/notification?category=Elektro&date=1525635965007 [32m200 [90m109ms - 981b[0m
undefined
[90mGET /node/express/lostandfound/notification?category=Elektro&date=1525635965007 [32m200 [90m109ms - 981b[0m
[90mGET /node/express/lostandfound/notification?category=Elektro&date=1525635965007 [32m200 [90m109ms - 981b[0m
undefined
[90mGET /node/express/lostandfound/notification?category=Elektro&date=1525635965007 [32m200 [90m108ms - 981b[0m
[90mGET /node/express/lostandfound/notification?category=Elektro&date=1525635965007 [32m200 [90m108ms - 981b[0m
undefined
[90mGET /node/express/lostandfound/notification?category=Elektro&date=1525635965007 [32m200 [90m109ms - 981b[0m
[90mGET /node/express/lostandfound/notification?category=Elektro&date=1525635965007 [32m200 [90m109ms - 981b[0m
undefined
[90mGET /node/express/lostandfound/notification?category=Elektro&date=1525635965007 [32m200 [90m109ms - 981b[0m
[90mGET /node/express/lostandfound/notification?category=Elektro&date=1525635965007 [32m200 [90m109ms - 981b[0m
undefined
[90mGET /node/express/lostandfound/notification?category=Elektro&date=1525635965007 [32m200 [90m110ms - 981b[0m
[90mGET /node/express/lostandfound/notification?category=Elektro&date=1525635965007 [32m200 [90m110ms - 981b[0m
undefined
[90mGET /node/express/lostandfound/notification?category=Elektro&date=1525635965007 [32m200 [90m109ms - 981b[0m
[90mGET /node/express/lostandfound/notification?category=Elektro&date=1525635965007 [32m200 [90m109ms - 981b[0m
undefined
[90mGET /node/express/lostandfound/notification?category=Elektro&date=1525635965007 [32m200 [90m109ms - 981b[0m
[90mGET /node/express/lostandfound/notification?category=Elektro&date=1525635965007 [32m200 [90m109ms - 981b[0m
undefined
[90mGET /node/express/lostandfound/notification?category=Elektro&date=1525635965007 [32m200 [90m109ms - 981b[0m
[90mGET /node/express/lostandfound/notification?category=Elektro&date=1525635965007 [32m200 [90m109ms - 981b[0m
undefined
[90mGET /node/express/lostandfound/notification?category=Elektro&date=1525635965007 [32m200 [90m110ms - 981b[0m
[90mGET /node/express/lostandfound/notification?category=Elektro&date=1525635965007 [32m200 [90m125ms - 981b[0m
undefined
[90mGET /node/express/lostandfound/notification?category=Elektro&date=1525635965007 [32m200 [90m219ms - 981b[0m
[90mGET /node/express/lostandfound/notification?category=Elektro&date=1525635965007 [32m200 [90m219ms - 981b[0m
undefined
[90mGET /node/express/lostandfound/notification?category=Elektro&date=1525635965007 [32m200 [90m110ms - 981b[0m
[90mGET /node/express/lostandfound/notification?category=Elektro&date=1525635965007 [32m200 [90m110ms - 981b[0m
undefined
[90mGET /node/express/lostandfound/notification?category=Elektro&date=1525635965007 [32m200 [90m109ms - 981b[0m
[90mGET /node/express/lostandfound/notification?category=Elektro&date=1525635965007 [32m200 [90m109ms - 981b[0m
undefined
[90mGET /node/express/lostandfound/notification?category=Elektro&date=1525635965007 [32m200 [90m109ms - 981b[0m
[90mGET /node/express/lostandfound/notification?category=Elektro&date=1525635965007 [32m200 [90m109ms - 981b[0m
undefined
[90mGET /node/express/lostandfound/notification?category=Elektro&date=1525635965007 [32m200 [90m109ms - 981b[0m
[90mGET /node/express/lostandfound/notification?category=Elektro&date=1525635965007 [32m200 [90m109ms - 981b[0m
undefined
[90mGET /node/express/lostandfound/notification?category=Elektro&date=1525635965007 [32m200 [90m110ms - 981b[0m
[90mGET /node/express/lostandfound/notification?category=Elektro&date=1525635965007 [32m200 [90m110ms - 981b[0m
undefined
[90mGET /node/express/lostandfound/notification?category=Elektro&date=1525635965007 [32m200 [90m125ms - 981b[0m
[90mGET /node/express/lostandfound/notification?category=Elektro&date=1525635965007 [32m200 [90m125ms - 981b[0m
undefined
[90mGET /node/express/lostandfound/notification?category=Elektro&date=1525635965007 [32m200 [90m109ms - 981b[0m
[90mGET /node/express/lostandfound/notification?category=Elektro&date=1525635965007 [32m200 [90m109ms - 981b[0m
undefined
[90mGET /node/express/lostandfound/notification?category=Elektro&date=1525635965007 [32m200 [90m109ms - 981b[0m
[90mGET /node/express/lostandfound/notification?category=Elektro&date=1525635965007 [32m200 [90m109ms - 981b[0m
undefined
[90mGET /node/express/lostandfound/notification?category=Elektro&date=1525635965007 [32m200 [90m109ms - 981b[0m
[90mGET /node/express/lostandfound/notification?category=Elektro&date=1525635965007 [32m200 [90m109ms - 981b[0m
undefined
[90mGET /node/express/lostandfound/notification?category=Elektro&date=1525635965007 [32m200 [90m109ms - 981b[0m
[90mGET /node/express/lostandfound/notification?category=Elektro&date=1525635965007 [32m200 [90m109ms - 981b[0m
undefined
[90mGET /node/express/lostandfound/notification?category=Elektro&date=1525635965007 [32m200 [90m109ms - 981b[0m
[90mGET /node/express/lostandfound/notification?category=Elektro&date=1525635965007 [32m200 [90m109ms - 981b[0m
undefined
[90mGET /node/express/lostandfound/notification?category=Elektro&date=1525635965007 [32m200 [90m109ms - 981b[0m
[90mGET /node/express/lostandfound/notification?category=Elektro&date=1525635965007 [32m200 [90m109ms - 981b[0m
undefined
[90mGET /node/express/lostandfound/notification?category=Elektro&date=1525635965007 [32m200 [90m109ms - 981b[0m
[90mGET /node/express/lostandfound/notification?category=Elektro&date=1525635965007 [32m200 [90m109ms - 981b[0m
undefined
[90mGET /node/express/lostandfound/notification?category=Elektro&date=1525635965007 [32m200 [90m109ms - 981b[0m
[90mGET /node/express/lostandfound/notification?category=Elektro&date=1525635965007 [32m200 [90m109ms - 981b[0m
undefined
[90mGET /node/express/lostandfound/notification?category=Elektro&date=1525635965007 [32m200 [90m110ms - 981b[0m
[90mGET /node/express/lostandfound/notification?category=Elektro&date=1525635965007 [32m200 [90m110ms - 981b[0m
undefined
[90mGET /node/express/lostandfound/notification?category=Elektro&date=1525635965007 [32m200 [90m109ms - 981b[0m
[90mGET /node/express/lostandfound/notification?category=Elektro&date=1525635965007 [32m200 [90m125ms - 981b[0m
undefined
[90mGET /node/express/lostandfound/notification?category=Elektro&date=1525635965007 [32m200 [90m109ms - 981b[0m
[90mGET /node/express/lostandfound/notification?category=Elektro&date=1525635965007 [32m200 [90m109ms - 981b[0m
undefined
[90mGET /node/express/lostandfound/notification?category=Elektro&date=1525635965007 [32m200 [90m125ms - 981b[0m
[90mGET /node/express/lostandfound/notification?category=Elektro&date=1525635965007 [32m200 [90m125ms - 981b[0m
undefined
[90mGET /node/express/lostandfound/notification?category=Elektro&date=1525635965007 [32m200 [90m109ms - 981b[0m
[90mGET /node/express/lostandfound/notification?category=Elektro&date=1525635965007 [32m200 [90m109ms - 981b[0m
undefined
[90mGET /node/express/lostandfound/notification?category=Elektro&date=1525635965007 [32m200 [90m109ms - 981b[0m
[90mGET /node/express/lostandfound/notification?category=Elektro&date=1525635965007 [32m200 [90m140ms - 981b[0m
undefined
[90mGET /node/express/lostandfound/notification?category=Elektro&date=1525635965007 [32m200 [90m109ms - 981b[0m
[90mGET /node/express/lostandfound/notification?category=Elektro&date=1525635965007 [32m200 [90m109ms - 981b[0m
undefined
[90mGET /node/express/lostandfound/notification?category=Elektro&date=1525635965007 [32m200 [90m110ms - 981b[0m
[90mGET /node/express/lostandfound/notification?category=Elektro&date=1525635965007 [32m200 [90m110ms - 981b[0m
undefined
[90mGET /node/express/lostandfound/notification?category=Elektro&date=1525635965007 [32m200 [90m109ms - 981b[0m
[90mGET /node/express/lostandfound/notification?category=Elektro&date=1525635965007 [32m200 [90m109ms - 981b[0m
undefined
[90mGET /node/express/lostandfound/notification?category=Elektro&date=1525635965007 [32m200 [90m109ms - 981b[0m
[90mGET /node/express/lostandfound/notification?category=Elektro&date=1525635965007 [32m200 [90m109ms - 981b[0m
undefined
[90mGET /node/express/lostandfound/notification?category=Elektro&date=1525635965007 [32m200 [90m125ms - 981b[0m
[90mGET /node/express/lostandfound/notification?category=Elektro&date=1525635965007 [32m200 [90m125ms - 981b[0m
undefined
[90mGET /node/express/lostandfound/notification?category=Elektro&date=1525635965007 [32m200 [90m109ms - 981b[0m
[90mGET /node/express/lostandfound/notification?category=Elektro&date=1525635965007 [32m200 [90m109ms - 981b[0m
undefined
[90mGET /node/express/lostandfound/notification?category=Elektro&date=1525635965007 [32m200 [90m110ms - 981b[0m
[90mGET /node/express/lostandfound/notification?category=Elektro&date=1525635965007 [32m200 [90m110ms - 981b[0m
undefined
[90mGET /node/express/lostandfound/notification?category=Elektro&date=1525635965007 [32m200 [90m110ms - 981b[0m
[90mGET /node/express/lostandfound/notification?category=Elektro&date=1525635965007 [32m200 [90m110ms - 981b[0m
undefined
[90mGET /node/express/lostandfound/notification?category=Elektro&date=1525635965007 [32m200 [90m109ms - 981b[0m
[90mGET /node/express/lostandfound/notification?category=Elektro&date=1525635965007 [32m200 [90m109ms - 981b[0m
undefined
[90mGET /node/express/lostandfound/notification?category=Elektro&date=1525635965007 [32m200 [90m110ms - 981b[0m
[90mGET /node/express/lostandfound/notification?category=Elektro&date=1525635965007 [32m200 [90m110ms - 981b[0m
undefined
[90mGET /node/express/lostandfound/notification?category=Elektro&date=1525635965007 [32m200 [90m110ms - 981b[0m
[90mGET /node/express/lostandfound/notification?category=Elektro&date=1525635965007 [32m200 [90m110ms - 981b[0m
undefined
[90mGET /node/express/lostandfound/notification?category=Elektro&date=1525635965007 [32m200 [90m110ms - 981b[0m
[90mGET /node/express/lostandfound/notification?category=Elektro&date=1525635965007 [32m200 [90m110ms - 981b[0m
undefined
[90mGET /node/express/lostandfound/notification?category=Elektro&date=1525635965007 [32m200 [90m156ms - 981b[0m
[90mGET /node/express/lostandfound/notification?category=Elektro&date=1525635965007 [32m200 [90m156ms - 981b[0m
undefined
[90mGET /node/express/lostandfound/notification?category=Elektro&date=1525635965007 [32m200 [90m109ms - 981b[0m
[90mGET /node/express/lostandfound/notification?category=Elektro&date=1525635965007 [32m200 [90m109ms - 981b[0m
undefined
[90mGET /node/express/lostandfound/notification?category=Elektro&date=1525635965007 [32m200 [90m109ms - 981b[0m
[90mGET /node/express/lostandfound/notification?category=Elektro&date=1525635965007 [32m200 [90m109ms - 981b[0m
undefined
[90mGET /node/express/lostandfound/notification?category=Elektro&date=1525635965007 [32m200 [90m203ms - 981b[0m
[90mGET /node/express/lostandfound/notification?category=Elektro&date=1525635965007 [32m200 [90m203ms - 981b[0m
undefined
[90mGET /node/express/lostandfound/notification?category=Elektro&date=1525635965007 [32m200 [90m125ms - 981b[0m
[90mGET /node/express/lostandfound/notification?category=Elektro&date=1525635965007 [32m200 [90m125ms - 981b[0m
undefined
[90mGET /node/express/lostandfound/notification?category=Elektro&date=1525635965007 [32m200 [90m109ms - 981b[0m
[90mGET /node/express/lostandfound/notification?category=Elektro&date=1525635965007 [32m200 [90m109ms - 981b[0m
undefined
[90mGET /node/express/lostandfound/notification?category=Elektro&date=1525635965007 [32m200 [90m109ms - 981b[0m
[90mGET /node/express/lostandfound/notification?category=Elektro&date=1525635965007 [32m200 [90m109ms - 981b[0m
undefined
[90mGET /node/express/lostandfound/notification?category=Elektro&date=1525635965007 [32m200 [90m109ms - 981b[0m
[90mGET /node/express/lostandfound/notification?category=Elektro&date=1525635965007 [32m200 [90m109ms - 981b[0m
undefined
[90mGET /node/express/lostandfound/notification?category=Elektro&date=1525635965007 [32m200 [90m109ms - 981b[0m
[90mGET /node/express/lostandfound/notification?category=Elektro&date=1525635965007 [32m200 [90m109ms - 981b[0m
undefined
[90mGET /node/express/lostandfound/notification?category=Elektro&date=1525635965007 [32m200 [90m109ms - 981b[0m
[90mGET /node/express/lostandfound/notification?category=Elektro&date=1525635965007 [32m200 [90m109ms - 981b[0m
undefined
[90mGET /node/express/lostandfound/notification?category=Elektro&date=1525635965007 [32m200 [90m109ms - 981b[0m
[90mGET /node/express/lostandfound/notification?category=Elektro&date=1525635965007 [32m200 [90m156ms - 981b[0m
undefined
[90mGET /node/express/lostandfound/notification?category=Elektro&date=1525635965007 [32m200 [90m125ms - 981b[0m
[90mGET /node/express/lostandfound/notification?category=Elektro&date=1525635965007 [32m200 [90m125ms - 981b[0m
undefined
[90mGET /node/express/lostandfound/notification?category=Elektro&date=1525635965007 [32m200 [90m109ms - 981b[0m
[90mGET /node/express/lostandfound/notification?category=Elektro&date=1525635965007 [32m200 [90m109ms - 981b[0m
undefined
[90mGET /node/express/lostandfound/notification?category=Elektro&date=1525635965007 [32m200 [90m125ms - 981b[0m
[90mGET /node/express/lostandfound/notification?category=Elektro&date=1525635965007 [32m200 [90m172ms - 981b[0m
undefined
[90mGET /node/express/lostandfound/notification?category=Elektro&date=1525635965007 [32m200 [90m109ms - 981b[0m
[90mGET /node/express/lostandfound/notification?category=Elektro&date=1525635965007 [32m200 [90m109ms - 981b[0m
undefined
[90mGET /node/express/lostandfound/notification?category=Elektro&date=1525635965007 [32m200 [90m109ms - 981b[0m
[90mGET /node/express/lostandfound/notification?category=Elektro&date=1525635965007 [32m200 [90m109ms - 981b[0m
undefined
[90mGET /node/express/lostandfound/notification?category=Elektro&date=1525635965007 [32m200 [90m109ms - 981b[0m
[90mGET /node/express/lostandfound/notification?category=Elektro&date=1525635965007 [32m200 [90m109ms - 981b[0m
undefined
[90mGET /node/express/lostandfound/notification?category=Elektro&date=1525635965007 [32m200 [90m109ms - 981b[0m
[90mGET /node/express/lostandfound/notification?category=Elektro&date=1525635965007 [32m200 [90m109ms - 981b[0m
undefined
[90mGET /node/express/lostandfound/notification?category=Elektro&date=1525635965007 [32m200 [90m109ms - 981b[0m
[90mGET /node/express/lostandfound/notification?category=Elektro&date=1525635965007 [32m200 [90m109ms - 981b[0m
undefined
[90mGET /node/express/lostandfound/notification?category=Elektro&date=1525635965007 [32m200 [90m109ms - 981b[0m
[90mGET /node/express/lostandfound/notification?category=Elektro&date=1525635965007 [32m200 [90m109ms - 981b[0m
undefined
[90mGET /node/express/lostandfound/notification?category=Elektro&date=1525635965007 [32m200 [90m110ms - 981b[0m
[90mGET /node/express/lostandfound/notification?category=Elektro&date=1525635965007 [32m200 [90m110ms - 981b[0m
undefined
[90mGET /node/express/lostandfound/notification?category=Elektro&date=1525635965007 [32m200 [90m109ms - 981b[0m
[90mGET /node/express/lostandfound/notification?category=Elektro&date=1525635965007 [32m200 [90m109ms - 981b[0m
undefined
[90mGET /node/express/lostandfound/notification?category=Elektro&date=1525635965007 [32m200 [90m126ms - 981b[0m
[90mGET /node/express/lostandfound/notification?category=Elektro&date=1525635965007 [32m200 [90m126ms - 981b[0m
undefined
[90mGET /node/express/lostandfound/notification?category=Elektro&date=1525635965007 [32m200 [90m109ms - 981b[0m
[90mGET /node/express/lostandfound/notification?category=Elektro&date=1525635965007 [32m200 [90m109ms - 981b[0m
undefined
[90mGET /node/express/lostandfound/notification?category=Elektro&date=1525635965007 [32m200 [90m109ms - 981b[0m
[90mGET /node/express/lostandfound/notification?category=Elektro&date=1525635965007 [32m200 [90m109ms - 981b[0m
undefined
[90mGET /node/express/lostandfound/notification?category=Elektro&date=1525635965007 [32m200 [90m109ms - 981b[0m
[90mGET /node/express/lostandfound/notification?category=Elektro&date=1525635965007 [32m200 [90m109ms - 981b[0m
undefined
[90mGET /node/express/lostandfound/notification?category=Elektro&date=1525635965007 [32m200 [90m109ms - 981b[0m
[90mGET /node/express/lostandfound/notification?category=Elektro&date=1525635965007 [32m200 [90m109ms - 981b[0m
undefined
[90mGET /node/express/lostandfound/notification?category=Elektro&date=1525635965007 [32m200 [90m110ms - 981b[0m
[90mGET /node/express/lostandfound/notification?category=Elektro&date=1525635965007 [32m200 [90m110ms - 981b[0m
undefined
[90mGET /node/express/lostandfound/notification?category=Elektro&date=1525635965007 [32m200 [90m109ms - 981b[0m
[90mGET /node/express/lostandfound/notification?category=Elektro&date=1525635965007 [32m200 [90m109ms - 981b[0m
undefined
[90mGET /node/express/lostandfound/notification?category=Elektro&date=1525635965007 [32m200 [90m110ms - 981b[0m
[90mGET /node/express/lostandfound/notification?category=Elektro&date=1525635965007 [32m200 [90m110ms - 981b[0m
undefined
[90mGET /node/express/lostandfound/notification?category=Elektro&date=1525635965007 [32m200 [90m109ms - 981b[0m
[90mGET /node/express/lostandfound/notification?category=Elektro&date=1525635965007 [32m200 [90m109ms - 981b[0m
undefined
[90mGET /node/express/lostandfound/notification?category=Elektro&date=1525635965007 [32m200 [90m109ms - 981b[0m
[90mGET /node/express/lostandfound/notification?category=Elektro&date=1525635965007 [32m200 [90m109ms - 981b[0m
undefined
[90mGET /node/express/lostandfound/notification?category=Elektro&date=1525635965007 [32m200 [90m156ms - 981b[0m
[90mGET /node/express/lostandfound/notification?category=Elektro&date=1525635965007 [32m200 [90m156ms - 981b[0m
undefined
[90mGET /node/express/lostandfound/notification?category=Elektro&date=1525635965007 [32m200 [90m109ms - 981b[0m
[90mGET /node/express/lostandfound/notification?category=Elektro&date=1525635965007 [32m200 [90m109ms - 981b[0m
undefined
[90mGET /node/express/lostandfound/notification?category=Elektro&date=1525635965007 [32m200 [90m109ms - 981b[0m
[90mGET /node/express/lostandfound/notification?category=Elektro&date=1525635965007 [32m200 [90m109ms - 981b[0m
undefined
[90mGET /node/express/lostandfound/notification?category=Elektro&date=1525635965007 [32m200 [90m109ms - 981b[0m
[90mGET /node/express/lostandfound/notification?category=Elektro&date=1525635965007 [32m200 [90m109ms - 981b[0m
undefined
[90mGET /node/express/lostandfound/notification?category=Elektro&date=1525635965007 [32m200 [90m110ms - 981b[0m
[90mGET /node/express/lostandfound/notification?category=Elektro&date=1525635965007 [32m200 [90m110ms - 981b[0m
undefined
[90mGET /node/express/lostandfound/notification?category=Elektro&date=1525635965007 [32m200 [90m110ms - 981b[0m
[90mGET /node/express/lostandfound/notification?category=Elektro&date=1525635965007 [32m200 [90m110ms - 981b[0m
undefined
[90mGET /node/express/lostandfound/notification?category=Elektro&date=1525635965007 [32m200 [90m110ms - 981b[0m
[90mGET /node/express/lostandfound/notification?category=Elektro&date=1525635965007 [32m200 [90m110ms - 981b[0m
undefined
[90mGET /node/express/lostandfound/notification?category=Elektro&date=1525635965007 [32m200 [90m109ms - 981b[0m
[90mGET /node/express/lostandfound/notification?category=Elektro&date=1525635965007 [32m200 [90m109ms - 981b[0m
undefined
[90mGET /node/express/lostandfound/notification?category=Elektro&date=1525635965007 [32m200 [90m125ms - 981b[0m
[90mGET /node/express/lostandfound/notification?category=Elektro&date=1525635965007 [32m200 [90m125ms - 981b[0m
undefined
[90mGET /node/express/lostandfound/notification?category=Elektro&date=1525635965007 [32m200 [90m109ms - 981b[0m
[90mGET /node/express/lostandfound/notification?category=Elektro&date=1525635965007 [32m200 [90m109ms - 981b[0m
undefined
[90mGET /node/express/lostandfound/notification?category=Elektro&date=1525635965007 [32m200 [90m125ms - 981b[0m
[90mGET /node/express/lostandfound/notification?category=Elektro&date=1525635965007 [32m200 [90m125ms - 981b[0m
undefined
[90mGET /node/express/lostandfound/notification?category=Elektro&date=1525635965007 [32m200 [90m110ms - 981b[0m
[90mGET /node/express/lostandfound/notification?category=Elektro&date=1525635965007 [32m200 [90m110ms - 981b[0m
undefined
[90mGET /node/express/lostandfound/notification?category=Elektro&date=1525635965007 [32m200 [90m125ms - 981b[0m
[90mGET /node/express/lostandfound/notification?category=Elektro&date=1525635965007 [32m200 [90m125ms - 981b[0m
undefined
[90mGET /node/express/lostandfound/notification?category=Elektro&date=1525635965007 [32m200 [90m109ms - 981b[0m
[90mGET /node/express/lostandfound/notification?category=Elektro&date=1525635965007 [32m200 [90m109ms - 981b[0m
undefined
[90mGET /node/express/lostandfound/notification?category=Elektro&date=1525635965007 [32m200 [90m109ms - 981b[0m
[90mGET /node/express/lostandfound/notification?category=Elektro&date=1525635965007 [32m200 [90m125ms - 981b[0m
undefined
[90mGET /node/express/lostandfound/notification?category=Elektro&date=1525635965007 [32m200 [90m110ms - 981b[0m
[90mGET /node/express/lostandfound/notification?category=Elektro&date=1525635965007 [32m200 [90m110ms - 981b[0m
undefined
[90mGET /node/express/lostandfound/notification?category=Elektro&date=1525635965007 [32m200 [90m126ms - 981b[0m
[90mGET /node/express/lostandfound/notification?category=Elektro&date=1525635965007 [32m200 [90m126ms - 981b[0m
undefined
[90mGET /node/express/lostandfound/notification?category=Elektro&date=1525635965007 [32m200 [90m110ms - 981b[0m
[90mGET /node/express/lostandfound/notification?category=Elektro&date=1525635965007 [32m200 [90m110ms - 981b[0m
undefined
[90mGET /node/express/lostandfound/notification?category=Elektro&date=1525635965007 [32m200 [90m110ms - 981b[0m
[90mGET /node/express/lostandfound/notification?category=Elektro&date=1525635965007 [32m200 [90m110ms - 981b[0m
undefined
[90mGET /node/express/lostandfound/notification?category=Elektro&date=1525635965007 [32m200 [90m110ms - 981b[0m
[90mGET /node/express/lostandfound/notification?category=Elektro&date=1525635965007 [32m200 [90m110ms - 981b[0m
undefined
[90mGET /node/express/lostandfound/notification?category=Elektro&date=1525635965007 [32m200 [90m109ms - 981b[0m
[90mGET /node/express/lostandfound/notification?category=Elektro&date=1525635965007 [32m200 [90m109ms - 981b[0m
undefined
[90mGET /node/express/lostandfound/notification?category=Elektro&date=1525635965007 [32m200 [90m109ms - 981b[0m
[90mGET /node/express/lostandfound/notification?category=Elektro&date=1525635965007 [32m200 [90m109ms - 981b[0m
undefined
[90mGET /node/express/lostandfound/notification?category=Elektro&date=1525635965007 [32m200 [90m141ms - 981b[0m
[90mGET /node/express/lostandfound/notification?category=Elektro&date=1525635965007 [32m200 [90m156ms - 981b[0m
undefined
[90mGET /node/express/lostandfound/notification?category=Elektro&date=1525635965007 [32m200 [90m125ms - 981b[0m
[90mGET /node/express/lostandfound/notification?category=Elektro&date=1525635965007 [32m200 [90m125ms - 981b[0m
undefined
[90mGET /node/express/lostandfound/notification?category=Elektro&date=1525635965007 [32m200 [90m109ms - 981b[0m
[90mGET /node/express/lostandfound/notification?category=Elektro&date=1525635965007 [32m200 [90m124ms - 981b[0m
undefined
[90mGET /node/express/lostandfound/notification?category=Elektro&date=1525635965007 [32m200 [90m157ms - 981b[0m
[90mGET /node/express/lostandfound/notification?category=Elektro&date=1525635965007 [32m200 [90m157ms - 981b[0m
undefined
[90mGET /node/express/lostandfound/notification?category=Elektro&date=1525635965007 [32m200 [90m109ms - 981b[0m
[90mGET /node/express/lostandfound/notification?category=Elektro&date=1525635965007 [32m200 [90m109ms - 981b[0m
undefined
[90mGET /node/express/lostandfound/notification?category=Elektro&date=1525635965007 [32m200 [90m109ms - 981b[0m
[90mGET /node/express/lostandfound/notification?category=Elektro&date=1525635965007 [32m200 [90m109ms - 981b[0m
undefined
[90mGET /node/express/lostandfound/notification?category=Elektro&date=1525635965007 [32m200 [90m125ms - 981b[0m
[90mGET /node/express/lostandfound/notification?category=Elektro&date=1525635965007 [32m200 [90m125ms - 981b[0m
undefined
[90mGET /node/express/lostandfound/notification?category=Elektro&date=1525635965007 [32m200 [90m110ms - 981b[0m
[90mGET /node/express/lostandfound/notification?category=Elektro&date=1525635965007 [32m200 [90m110ms - 981b[0m
undefined
[90mGET /node/express/lostandfound/notification?category=Elektro&date=1525635965007 [32m200 [90m109ms - 981b[0m
[90mGET /node/express/lostandfound/notification?category=Elektro&date=1525635965007 [32m200 [90m125ms - 981b[0m
undefined
[90mGET /node/express/lostandfound/notification?category=Elektro&date=1525635965007 [32m200 [90m109ms - 981b[0m
[90mGET /node/express/lostandfound/notification?category=Elektro&date=1525635965007 [32m200 [90m109ms - 981b[0m
undefined
[90mGET /node/express/lostandfound/notification?category=Elektro&date=1525635965007 [32m200 [90m125ms - 981b[0m
[90mGET /node/express/lostandfound/notification?category=Elektro&date=1525635965007 [32m200 [90m125ms - 981b[0m
undefined
[90mGET /node/express/lostandfound/notification?category=Elektro&date=1525635965007 [32m200 [90m109ms - 981b[0m
[90mGET /node/express/lostandfound/notification?category=Elektro&date=1525635965007 [32m200 [90m109ms - 981b[0m
undefined
[90mGET /node/express/lostandfound/notification?category=Elektro&date=1525635965007 [32m200 [90m156ms - 981b[0m
[90mGET /node/express/lostandfound/notification?category=Elektro&date=1525635965007 [32m200 [90m156ms - 981b[0m
undefined
[90mGET /node/express/lostandfound/notification?category=Elektro&date=1525635965007 [32m200 [90m109ms - 981b[0m
[90mGET /node/express/lostandfound/notification?category=Elektro&date=1525635965007 [32m200 [90m109ms - 981b[0m
undefined
[90mGET /node/express/lostandfound/notification?category=Elektro&date=1525635965007 [32m200 [90m125ms - 981b[0m
[90mGET /node/express/lostandfound/notification?category=Elektro&date=1525635965007 [32m200 [90m125ms - 981b[0m
undefined
[90mGET /node/express/lostandfound/notification?category=Elektro&date=1525635965007 [32m200 [90m109ms - 981b[0m
[90mGET /node/express/lostandfound/notification?category=Elektro&date=1525635965007 [32m200 [90m109ms - 981b[0m
undefined
[90mGET /node/express/lostandfound/notification?category=Elektro&date=1525635965007 [32m200 [90m109ms - 981b[0m
[90mGET /node/express/lostandfound/notification?category=Elektro&date=1525635965007 [32m200 [90m109ms - 981b[0m
undefined
[90mGET /node/express/lostandfound/notification?category=Elektro&date=1525635965007 [32m200 [90m125ms - 981b[0m
[90mGET /node/express/lostandfound/notification?category=Elektro&date=1525635965007 [32m200 [90m125ms - 981b[0m
undefined
[90mGET /node/express/lostandfound/notification?category=Elektro&date=1525635965007 [32m200 [90m110ms - 981b[0m
[90mGET /node/express/lostandfound/notification?category=Elektro&date=1525635965007 [32m200 [90m110ms - 981b[0m
undefined
[90mGET /node/express/lostandfound/notification?category=Elektro&date=1525635965007 [32m200 [90m110ms - 981b[0m
[90mGET /node/express/lostandfound/notification?category=Elektro&date=1525635965007 [32m200 [90m110ms - 981b[0m
undefined
[90mGET /node/express/lostandfound/notification?category=Elektro&date=1525635965007 [32m200 [90m109ms - 981b[0m
[90mGET /node/express/lostandfound/notification?category=Elektro&date=1525635965007 [32m200 [90m109ms - 981b[0m
undefined
[90mGET /node/express/lostandfound/notification?category=Elektro&date=1525635965007 [32m200 [90m110ms - 981b[0m
[90mGET /node/express/lostandfound/notification?category=Elektro&date=1525635965007 [32m200 [90m110ms - 981b[0m
undefined
[90mGET /node/express/lostandfound/notification?category=Elektro&date=1525635965007 [32m200 [90m109ms - 981b[0m
[90mGET /node/express/lostandfound/notification?category=Elektro&date=1525635965007 [32m200 [90m109ms - 981b[0m
undefined
[90mGET /node/express/lostandfound/notification?category=Elektro&date=1525635965007 [32m200 [90m110ms - 981b[0m
[90mGET /node/express/lostandfound/notification?category=Elektro&date=1525635965007 [32m200 [90m110ms - 981b[0m
undefined
[90mGET /node/express/lostandfound/notification?category=Elektro&date=1525635965007 [32m200 [90m110ms - 981b[0m
[90mGET /node/express/lostandfound/notification?category=Elektro&date=1525635965007 [32m200 [90m110ms - 981b[0m
undefined
[90mGET /node/express/lostandfound/notification?category=Elektro&date=1525635965007 [32m200 [90m109ms - 981b[0m
[90mGET /node/express/lostandfound/notification?category=Elektro&date=1525635965007 [32m200 [90m125ms - 981b[0m
undefined
[90mGET /node/express/lostandfound/notification?category=Elektro&date=1525635965007 [32m200 [90m110ms - 981b[0m
[90mGET /node/express/lostandfound/notification?category=Elektro&date=1525635965007 [32m200 [90m110ms - 981b[0m
undefined
[90mGET /node/express/lostandfound/notification?category=Elektro&date=1525635965007 [32m200 [90m124ms - 981b[0m
[90mGET /node/express/lostandfound/notification?category=Elektro&date=1525635965007 [32m200 [90m124ms - 981b[0m
undefined
[90mGET /node/express/lostandfound/notification?category=Elektro&date=1525635965007 [32m200 [90m109ms - 981b[0m
[90mGET /node/express/lostandfound/notification?category=Elektro&date=1525635965007 [32m200 [90m109ms - 981b[0m
undefined
[90mGET /node/express/lostandfound/notification?category=Elektro&date=1525635965007 [32m200 [90m110ms - 981b[0m
[90mGET /node/express/lostandfound/notification?category=Elektro&date=1525635965007 [32m200 [90m110ms - 981b[0m
undefined
[90mGET /node/express/lostandfound/notification?category=Elektro&date=1525635965007 [32m200 [90m125ms - 981b[0m
[90mGET /node/express/lostandfound/notification?category=Elektro&date=1525635965007 [32m200 [90m125ms - 981b[0m
undefined
[90mGET /node/express/lostandfound/notification?category=Elektro&date=1525635965007 [32m200 [90m109ms - 981b[0m
[90mGET /node/express/lostandfound/notification?category=Elektro&date=1525635965007 [32m200 [90m109ms - 981b[0m
undefined
[90mGET /node/express/lostandfound/notification?category=Elektro&date=1525635965007 [32m200 [90m109ms - 981b[0m
[90mGET /node/express/lostandfound/notification?category=Elektro&date=1525635965007 [32m200 [90m125ms - 981b[0m
undefined
[90mGET /node/express/lostandfound/notification?category=Elektro&date=1525635965007 [32m200 [90m109ms - 981b[0m
[90mGET /node/express/lostandfound/notification?category=Elektro&date=1525635965007 [32m200 [90m109ms - 981b[0m
undefined
[90mGET /node/express/lostandfound/notification?category=Elektro&date=1525635965007 [32m200 [90m125ms - 981b[0m
[90mGET /node/express/lostandfound/notification?category=Elektro&date=1525635965007 [32m200 [90m125ms - 981b[0m
undefined
[90mGET /node/express/lostandfound/notification?category=Elektro&date=1525635965007 [32m200 [90m110ms - 981b[0m
[90mGET /node/express/lostandfound/notification?category=Elektro&date=1525635965007 [32m200 [90m110ms - 981b[0m
undefined
[90mGET /node/express/lostandfound/notification?category=Elektro&date=1525635965007 [32m200 [90m110ms - 981b[0m
[90mGET /node/express/lostandfound/notification?category=Elektro&date=1525635965007 [32m200 [90m110ms - 981b[0m
undefined
[90mGET /node/express/lostandfound/notification?category=Elektro&date=1525635965007 [32m200 [90m109ms - 981b[0m
[90mGET /node/express/lostandfound/notification?category=Elektro&date=1525635965007 [32m200 [90m109ms - 981b[0m
undefined
[90mGET /node/express/lostandfound/notification?category=Elektro&date=1525635965007 [32m200 [90m125ms - 981b[0m
[90mGET /node/express/lostandfound/notification?category=Elektro&date=1525635965007 [32m200 [90m125ms - 981b[0m
undefined
[90mGET /node/express/lostandfound/notification?category=Elektro&date=1525635965007 [32m200 [90m110ms - 981b[0m
[90mGET /node/express/lostandfound/notification?category=Elektro&date=1525635965007 [32m200 [90m110ms - 981b[0m
undefined
[90mGET /node/express/lostandfound/notification?category=Elektro&date=1525635965007 [32m200 [90m109ms - 981b[0m
[90mGET /node/express/lostandfound/notification?category=Elektro&date=1525635965007 [32m200 [90m109ms - 981b[0m
undefined
[90mGET /node/express/lostandfound/notification?category=Elektro&date=1525635965007 [32m200 [90m109ms - 981b[0m
[90mGET /node/express/lostandfound/notification?category=Elektro&date=1525635965007 [32m200 [90m109ms - 981b[0m
undefined
[90mGET /node/express/lostandfound/notification?category=Elektro&date=1525635965007 [32m200 [90m110ms - 981b[0m
[90mGET /node/express/lostandfound/notification?category=Elektro&date=1525635965007 [32m200 [90m110ms - 981b[0m
undefined
[90mGET /node/express/lostandfound/notification?category=Elektro&date=1525635965007 [32m200 [90m109ms - 981b[0m
[90mGET /node/express/lostandfound/notification?category=Elektro&date=1525635965007 [32m200 [90m109ms - 981b[0m
undefined
[90mGET /node/express/lostandfound/notification?category=Elektro&date=1525635965007 [32m200 [90m110ms - 981b[0m
[90mGET /node/express/lostandfound/notification?category=Elektro&date=1525635965007 [32m200 [90m235ms - 981b[0m
undefined
[90mGET /node/express/lostandfound/notification?category=Elektro&date=1525635965007 [32m200 [90m110ms - 981b[0m
[90mGET /node/express/lostandfound/notification?category=Elektro&date=1525635965007 [32m200 [90m110ms - 981b[0m
undefined
[90mGET /node/express/lostandfound/notification?category=Elektro&date=1525635965007 [32m200 [90m110ms - 981b[0m
[90mGET /node/express/lostandfound/notification?category=Elektro&date=1525635965007 [32m200 [90m110ms - 981b[0m
undefined
[90mGET /node/express/lostandfound/notification?category=Elektro&date=1525635965007 [32m200 [90m109ms - 981b[0m
[90mGET /node/express/lostandfound/notification?category=Elektro&date=1525635965007 [32m200 [90m109ms - 981b[0m
undefined
[90mGET /node/express/lostandfound/notification?category=Elektro&date=1525635965007 [32m200 [90m109ms - 981b[0m
[90mGET /node/express/lostandfound/notification?category=Elektro&date=1525635965007 [32m200 [90m124ms - 981b[0m
undefined
[90mGET /node/express/lostandfound/notification?category=Elektro&date=1525635965007 [32m200 [90m110ms - 981b[0m
[90mGET /node/express/lostandfound/notification?category=Elektro&date=1525635965007 [32m200 [90m110ms - 981b[0m
undefined
[90mGET /node/express/lostandfound/notification?category=Elektro&date=1525635965007 [32m200 [90m109ms - 981b[0m
[90mGET /node/express/lostandfound/notification?category=Elektro&date=1525635965007 [32m200 [90m109ms - 981b[0m
undefined
[90mGET /node/express/lostandfound/notification?category=Elektro&date=1525635965007 [32m200 [90m110ms - 981b[0m
[90mGET /node/express/lostandfound/notification?category=Elektro&date=1525635965007 [32m200 [90m110ms - 981b[0m
undefined
[90mGET /node/express/lostandfound/notification?category=Elektro&date=1525635965007 [32m200 [90m157ms - 981b[0m
[90mGET /node/express/lostandfound/notification?category=Elektro&date=1525635965007 [32m200 [90m157ms - 981b[0m
undefined
[90mGET /node/express/lostandfound/notification?category=Elektro&date=1525635965007 [32m200 [90m110ms - 981b[0m
[90mGET /node/express/lostandfound/notification?category=Elektro&date=1525635965007 [32m200 [90m110ms - 981b[0m
undefined
[90mGET /node/express/lostandfound/notification?category=Elektro&date=1525635965007 [32m200 [90m109ms - 981b[0m
[90mGET /node/express/lostandfound/notification?category=Elektro&date=1525635965007 [32m200 [90m109ms - 981b[0m
undefined
[90mGET /node/express/lostandfound/notification?category=Elektro&date=1525635965007 [32m200 [90m110ms - 981b[0m
[90mGET /node/express/lostandfound/notification?category=Elektro&date=1525635965007 [32m200 [90m110ms - 981b[0m
undefined
[90mGET /node/express/lostandfound/notification?category=Elektro&date=1525635965007 [32m200 [90m125ms - 981b[0m
[90mGET /node/express/lostandfound/notification?category=Elektro&date=1525635965007 [32m200 [90m125ms - 981b[0m
undefined
[90mGET /node/express/lostandfound/notification?category=Elektro&date=1525635965007 [32m200 [90m125ms - 981b[0m
[90mGET /node/express/lostandfound/notification?category=Elektro&date=1525635965007 [32m200 [90m125ms - 981b[0m
undefined
[90mGET /node/express/lostandfound/notification?category=Elektro&date=1525635965007 [32m200 [90m109ms - 981b[0m
[90mGET /node/express/lostandfound/notification?category=Elektro&date=1525635965007 [32m200 [90m109ms - 981b[0m
undefined
[90mGET /node/express/lostandfound/notification?category=Elektro&date=1525635965007 [32m200 [90m125ms - 981b[0m
[90mGET /node/express/lostandfound/notification?category=Elektro&date=1525635965007 [32m200 [90m125ms - 981b[0m
undefined
[90mGET /node/express/lostandfound/notification?category=Elektro&date=1525635965007 [32m200 [90m109ms - 981b[0m
[90mGET /node/express/lostandfound/notification?category=Elektro&date=1525635965007 [32m200 [90m109ms - 981b[0m
undefined
[90mGET /node/express/lostandfound/notification?category=Elektro&date=1525635965007 [32m200 [90m125ms - 981b[0m
[90mGET /node/express/lostandfound/notification?category=Elektro&date=1525635965007 [32m200 [90m125ms - 981b[0m
undefined
[90mGET /node/express/lostandfound/notification?category=Elektro&date=1525635965007 [32m200 [90m109ms - 981b[0m
[90mGET /node/express/lostandfound/notification?category=Elektro&date=1525635965007 [32m200 [90m109ms - 981b[0m
undefined
[90mGET /node/express/lostandfound/notification?category=Elektro&date=1525635965007 [32m200 [90m110ms - 981b[0m
[90mGET /node/express/lostandfound/notification?category=Elektro&date=1525635965007 [32m200 [90m110ms - 981b[0m
undefined
[90mGET /node/express/lostandfound/notification?category=Elektro&date=1525635965007 [32m200 [90m125ms - 981b[0m
[90mGET /node/express/lostandfound/notification?category=Elektro&date=1525635965007 [32m200 [90m125ms - 981b[0m
undefined
[90mGET /node/express/lostandfound/notification?category=Elektro&date=1525635965007 [32m200 [90m109ms - 981b[0m
[90mGET /node/express/lostandfound/notification?category=Elektro&date=1525635965007 [32m200 [90m109ms - 981b[0m
undefined
[90mGET /node/express/lostandfound/notification?category=Elektro&date=1525635965007 [32m200 [90m109ms - 981b[0m
[90mGET /node/express/lostandfound/notification?category=Elektro&date=1525635965007 [32m200 [90m109ms - 981b[0m
undefined
[90mGET /node/express/lostandfound/notification?category=Elektro&date=1525635965007 [32m200 [90m110ms - 981b[0m
[90mGET /node/express/lostandfound/notification?category=Elektro&date=1525635965007 [32m200 [90m110ms - 981b[0m
undefined
[90mGET /node/express/lostandfound/notification?category=Elektro&date=1525635965007 [32m200 [90m109ms - 981b[0m
[90mGET /node/express/lostandfound/notification?category=Elektro&date=1525635965007 [32m200 [90m109ms - 981b[0m
undefined
[90mGET /node/express/lostandfound/notification?category=Elektro&date=1525635965007 [32m200 [90m109ms - 981b[0m
[90mGET /node/express/lostandfound/notification?category=Elektro&date=1525635965007 [32m200 [90m109ms - 981b[0m
undefined
[90mGET /node/express/lostandfound/notification?category=Elektro&date=1525635965007 [32m200 [90m109ms - 981b[0m
[90mGET /node/express/lostandfound/notification?category=Elektro&date=1525635965007 [32m200 [90m109ms - 981b[0m
undefined
[90mGET /node/express/lostandfound/notification?category=Elektro&date=1525635965007 [32m200 [90m109ms - 981b[0m
[90mGET /node/express/lostandfound/notification?category=Elektro&date=1525635965007 [32m200 [90m109ms - 981b[0m
undefined
[90mGET /node/express/lostandfound/notification?category=Elektro&date=1525635965007 [32m200 [90m157ms - 981b[0m
[90mGET /node/express/lostandfound/notification?category=Elektro&date=1525635965007 [32m200 [90m188ms - 981b[0m
undefined
[90mGET /node/express/lostandfound/notification?category=Elektro&date=1525635965007 [32m200 [90m124ms - 981b[0m
[90mGET /node/express/lostandfound/notification?category=Elektro&date=1525635965007 [32m200 [90m124ms - 981b[0m
undefined
[90mGET /node/express/lostandfound/notification?category=Elektro&date=1525635965007 [32m200 [90m109ms - 981b[0m
[90mGET /node/express/lostandfound/notification?category=Elektro&date=1525635965007 [32m200 [90m109ms - 981b[0m
undefined
[90mGET /node/express/lostandfound/notification?category=Elektro&date=1525635965007 [32m200 [90m110ms - 981b[0m
[90mGET /node/express/lostandfound/notification?category=Elektro&date=1525635965007 [32m200 [90m110ms - 981b[0m
undefined
[90mGET /node/express/lostandfound/notification?category=Elektro&date=1525635965007 [32m200 [90m109ms - 981b[0m
[90mGET /node/express/lostandfound/notification?category=Elektro&date=1525635965007 [32m200 [90m109ms - 981b[0m
undefined
[90mGET /node/express/lostandfound/notification?category=Elektro&date=1525635965007 [32m200 [90m109ms - 981b[0m
[90mGET /node/express/lostandfound/notification?category=Elektro&date=1525635965007 [32m200 [90m109ms - 981b[0m
undefined
[90mGET /node/express/lostandfound/notification?category=Elektro&date=1525635965007 [32m200 [90m110ms - 981b[0m
[90mGET /node/express/lostandfound/notification?category=Elektro&date=1525635965007 [32m200 [90m110ms - 981b[0m
undefined
[90mGET /node/express/lostandfound/notification?category=Elektro&date=1525635965007 [32m200 [90m125ms - 981b[0m
[90mGET /node/express/lostandfound/notification?category=Elektro&date=1525635965007 [32m200 [90m125ms - 981b[0m
undefined
[90mGET /node/express/lostandfound/notification?category=Elektro&date=1525635965007 [32m200 [90m110ms - 981b[0m
[90mGET /node/express/lostandfound/notification?category=Elektro&date=1525635965007 [32m200 [90m156ms - 981b[0m
undefined
[90mGET /node/express/lostandfound/notification?category=Elektro&date=1525635965007 [32m200 [90m109ms - 981b[0m
[90mGET /node/express/lostandfound/notification?category=Elektro&date=1525635965007 [32m200 [90m109ms - 981b[0m
undefined
[90mGET /node/express/lostandfound/notification?category=Elektro&date=1525635965007 [32m200 [90m109ms - 981b[0m
[90mGET /node/express/lostandfound/notification?category=Elektro&date=1525635965007 [32m200 [90m109ms - 981b[0m
undefined
[90mGET /node/express/lostandfound/notification?category=Elektro&date=1525635965007 [32m200 [90m109ms - 981b[0m
[90mGET /node/express/lostandfound/notification?category=Elektro&date=1525635965007 [32m200 [90m109ms - 981b[0m
undefined
[90mGET /node/express/lostandfound/notification?category=Elektro&date=1525635965007 [32m200 [90m104ms - 981b[0m
[90mGET /node/express/lostandfound/notification?category=Elektro&date=1525635965007 [32m200 [90m104ms - 981b[0m
undefined
[90mGET /node/express/lostandfound/notification?category=Elektro&date=1525635965007 [32m200 [90m125ms - 981b[0m
[90mGET /node/express/lostandfound/notification?category=Elektro&date=1525635965007 [32m200 [90m125ms - 981b[0m
undefined
[90mGET /node/express/lostandfound/notification?category=Elektro&date=1525635965007 [32m200 [90m203ms - 981b[0m
[90mGET /node/express/lostandfound/notification?category=Elektro&date=1525635965007 [32m200 [90m250ms - 981b[0m
undefined
[90mGET /node/express/lostandfound/notification?category=Elektro&date=1525635965007 [32m200 [90m110ms - 981b[0m
[90mGET /node/express/lostandfound/notification?category=Elektro&date=1525635965007 [32m200 [90m110ms - 981b[0m
undefined
[90mGET /node/express/lostandfound/notification?category=Elektro&date=1525635965007 [32m200 [90m109ms - 981b[0m
[90mGET /node/express/lostandfound/notification?category=Elektro&date=1525635965007 [32m200 [90m125ms - 981b[0m
undefined
[90mGET /node/express/lostandfound/notification?category=Elektro&date=1525635965007 [32m200 [90m109ms - 981b[0m
[90mGET /node/express/lostandfound/notification?category=Elektro&date=1525635965007 [32m200 [90m109ms - 981b[0m
undefined
[90mGET /node/express/lostandfound/notification?category=Elektro&date=1525635965007 [32m200 [90m110ms - 981b[0m
[90mGET /node/express/lostandfound/notification?category=Elektro&date=1525635965007 [32m200 [90m110ms - 981b[0m
undefined
[90mGET /node/express/lostandfound/notification?category=Elektro&date=1525635965007 [32m200 [90m125ms - 981b[0m
[90mGET /node/express/lostandfound/notification?category=Elektro&date=1525635965007 [32m200 [90m125ms - 981b[0m
undefined
[90mGET /node/express/lostandfound/notification?category=Elektro&date=1525635965007 [32m200 [90m110ms - 981b[0m
[90mGET /node/express/lostandfound/notification?category=Elektro&date=1525635965007 [32m200 [90m110ms - 981b[0m
undefined
[90mGET /node/express/lostandfound/notification?category=Elektro&date=1525635965007 [32m200 [90m109ms - 981b[0m
[90mGET /node/express/lostandfound/notification?category=Elektro&date=1525635965007 [32m200 [90m140ms - 981b[0m
undefined
[90mGET /node/express/lostandfound/notification?category=Elektro&date=1525635965007 [32m200 [90m110ms - 981b[0m
[90mGET /node/express/lostandfound/notification?category=Elektro&date=1525635965007 [32m200 [90m110ms - 981b[0m
undefined
[90mGET /node/express/lostandfound/notification?category=Elektro&date=1525635965007 [32m200 [90m125ms - 981b[0m
[90mGET /node/express/lostandfound/notification?category=Elektro&date=1525635965007 [32m200 [90m125ms - 981b[0m
undefined
[90mGET /node/express/lostandfound/notification?category=Elektro&date=1525635965007 [32m200 [90m110ms - 981b[0m
[90mGET /node/express/lostandfound/notification?category=Elektro&date=1525635965007 [32m200 [90m110ms - 981b[0m
undefined
[90mGET /node/express/lostandfound/notification?category=Elektro&date=1525635965007 [32m200 [90m125ms - 981b[0m
[90mGET /node/express/lostandfound/notification?category=Elektro&date=1525635965007 [32m200 [90m125ms - 981b[0m
undefined
[90mGET /node/express/lostandfound/notification?category=Elektro&date=1525635965007 [32m200 [90m109ms - 981b[0m
[90mGET /node/express/lostandfound/notification?category=Elektro&date=1525635965007 [32m200 [90m109ms - 981b[0m
undefined
[90mGET /node/express/lostandfound/notification?category=Elektro&date=1525635965007 [32m200 [90m109ms - 981b[0m
[90mGET /node/express/lostandfound/notification?category=Elektro&date=1525635965007 [32m200 [90m109ms - 981b[0m
undefined
[90mGET /node/express/lostandfound/notification?category=Elektro&date=1525635965007 [32m200 [90m109ms - 981b[0m
[90mGET /node/express/lostandfound/notification?category=Elektro&date=1525635965007 [32m200 [90m109ms - 981b[0m
undefined
[90mGET /node/express/lostandfound/notification?category=Elektro&date=1525635965007 [32m200 [90m109ms - 981b[0m
[90mGET /node/express/lostandfound/notification?category=Elektro&date=1525635965007 [32m200 [90m109ms - 981b[0m
undefined
[90mGET /node/express/lostandfound/notification?category=Elektro&date=1525635965007 [32m200 [90m110ms - 981b[0m
[90mGET /node/express/lostandfound/notification?category=Elektro&date=1525635965007 [32m200 [90m110ms - 981b[0m
undefined
[90mGET /node/express/lostandfound/notification?category=Elektro&date=1525635965007 [32m200 [90m110ms - 981b[0m
[90mGET /node/express/lostandfound/notification?category=Elektro&date=1525635965007 [32m200 [90m188ms - 981b[0m
undefined
[90mGET /node/express/lostandfound/notification?category=Elektro&date=1525635965007 [32m200 [90m109ms - 981b[0m
[90mGET /node/express/lostandfound/notification?category=Elektro&date=1525635965007 [32m200 [90m109ms - 981b[0m
undefined
[90mGET /node/express/lostandfound/notification?category=Elektro&date=1525635965007 [32m200 [90m126ms - 981b[0m
[90mGET /node/express/lostandfound/notification?category=Elektro&date=1525635965007 [32m200 [90m126ms - 981b[0m
undefined
[90mGET /node/express/lostandfound/notification?category=Elektro&date=1525635965007 [32m200 [90m109ms - 981b[0m
[90mGET /node/express/lostandfound/notification?category=Elektro&date=1525635965007 [32m200 [90m125ms - 981b[0m
undefined
[90mGET /node/express/lostandfound/notification?category=Elektro&date=1525635965007 [32m200 [90m109ms - 981b[0m
[90mGET /node/express/lostandfound/notification?category=Elektro&date=1525635965007 [32m200 [90m109ms - 981b[0m
undefined
[90mGET /node/express/lostandfound/notification?category=Elektro&date=1525635965007 [32m200 [90m110ms - 981b[0m
[90mGET /node/express/lostandfound/notification?category=Elektro&date=1525635965007 [32m200 [90m110ms - 981b[0m
undefined
[90mGET /node/express/lostandfound/notification?category=Elektro&date=1525635965007 [32m200 [90m125ms - 981b[0m
[90mGET /node/express/lostandfound/notification?category=Elektro&date=1525635965007 [32m200 [90m125ms - 981b[0m
undefined
[90mGET /node/express/lostandfound/notification?category=Elektro&date=1525635965007 [32m200 [90m110ms - 981b[0m
[90mGET /node/express/lostandfound/notification?category=Elektro&date=1525635965007 [32m200 [90m110ms - 981b[0m
undefined
[90mGET /node/express/lostandfound/notification?category=Elektro&date=1525635965007 [32m200 [90m109ms - 981b[0m
[90mGET /node/express/lostandfound/notification?category=Elektro&date=1525635965007 [32m200 [90m109ms - 981b[0m
undefined
[90mGET /node/express/lostandfound/notification?category=Elektro&date=1525635965007 [32m200 [90m110ms - 981b[0m
[90mGET /node/express/lostandfound/notification?category=Elektro&date=1525635965007 [32m200 [90m110ms - 981b[0m
undefined
[90mGET /node/express/lostandfound/notification?category=Elektro&date=1525635965007 [32m200 [90m109ms - 981b[0m
[90mGET /node/express/lostandfound/notification?category=Elektro&date=1525635965007 [32m200 [90m109ms - 981b[0m
undefined
[90mGET /node/express/lostandfound/notification?category=Elektro&date=1525635965007 [32m200 [90m109ms - 981b[0m
[90mGET /node/express/lostandfound/notification?category=Elektro&date=1525635965007 [32m200 [90m109ms - 981b[0m
undefined
[90mGET /node/express/lostandfound/notification?category=Elektro&date=1525635965007 [32m200 [90m110ms - 981b[0m
[90mGET /node/express/lostandfound/notification?category=Elektro&date=1525635965007 [32m200 [90m110ms - 981b[0m
undefined
[90mGET /node/express/lostandfound/notification?category=Elektro&date=1525635965007 [32m200 [90m109ms - 981b[0m
[90mGET /node/express/lostandfound/notification?category=Elektro&date=1525635965007 [32m200 [90m109ms - 981b[0m
undefined
[90mGET /node/express/lostandfound/notification?category=Elektro&date=1525635965007 [32m200 [90m109ms - 981b[0m
[90mGET /node/express/lostandfound/notification?category=Elektro&date=1525635965007 [32m200 [90m109ms - 981b[0m
undefined
[90mGET /node/express/lostandfound/notification?category=Elektro&date=1525635965007 [32m200 [90m101ms - 981b[0m
[90mGET /node/express/lostandfound/notification?category=Elektro&date=1525635965007 [32m200 [90m101ms - 981b[0m
undefined
[90mGET /node/express/lostandfound/notification?category=Elektro&date=1525635965007 [32m200 [90m109ms - 981b[0m
[90mGET /node/express/lostandfound/notification?category=Elektro&date=1525635965007 [32m200 [90m125ms - 981b[0m
undefined
[90mGET /node/express/lostandfound/notification?category=Elektro&date=1525635965007 [32m200 [90m110ms - 981b[0m
[90mGET /node/express/lostandfound/notification?category=Elektro&date=1525635965007 [32m200 [90m110ms - 981b[0m
undefined
[90mGET /node/express/lostandfound/notification?category=Elektro&date=1525635965007 [32m200 [90m109ms - 981b[0m
[90mGET /node/express/lostandfound/notification?category=Elektro&date=1525635965007 [32m200 [90m109ms - 981b[0m
undefined
[90mGET /node/express/lostandfound/notification?category=Elektro&date=1525635965007 [32m200 [90m109ms - 981b[0m
[90mGET /node/express/lostandfound/notification?category=Elektro&date=1525635965007 [32m200 [90m109ms - 981b[0m
undefined
[90mGET /node/express/lostandfound/notification?category=Elektro&date=1525635965007 [32m200 [90m125ms - 981b[0m
[90mGET /node/express/lostandfound/notification?category=Elektro&date=1525635965007 [32m200 [90m125ms - 981b[0m
undefined
[90mGET /node/express/lostandfound/notification?category=Elektro&date=1525635965007 [32m200 [90m110ms - 981b[0m
[90mGET /node/express/lostandfound/notification?category=Elektro&date=1525635965007 [32m200 [90m110ms - 981b[0m
undefined
[90mGET /node/express/lostandfound/notification?category=Elektro&date=1525635965007 [32m200 [90m110ms - 981b[0m
[90mGET /node/express/lostandfound/notification?category=Elektro&date=1525635965007 [32m200 [90m110ms - 981b[0m
undefined
[90mGET /node/express/lostandfound/notification?category=Elektro&date=1525635965007 [32m200 [90m125ms - 981b[0m
[90mGET /node/express/lostandfound/notification?category=Elektro&date=1525635965007 [32m200 [90m125ms - 981b[0m
undefined
[90mGET /node/express/lostandfound/notification?category=Elektro&date=1525635965007 [32m200 [90m125ms - 981b[0m
[90mGET /node/express/lostandfound/notification?category=Elektro&date=1525635965007 [32m200 [90m125ms - 981b[0m
undefined
[90mGET /node/express/lostandfound/notification?category=Elektro&date=1525635965007 [32m200 [90m109ms - 981b[0m
[90mGET /node/express/lostandfound/notification?category=Elektro&date=1525635965007 [32m200 [90m109ms - 981b[0m
undefined
[90mGET /node/express/lostandfound/notification?category=Elektro&date=1525635965007 [32m200 [90m125ms - 981b[0m
[90mGET /node/express/lostandfound/notification?category=Elektro&date=1525635965007 [32m200 [90m125ms - 981b[0m
undefined
[90mGET /node/express/lostandfound/notification?category=Elektro&date=1525635965007 [32m200 [90m110ms - 981b[0m
[90mGET /node/express/lostandfound/notification?category=Elektro&date=1525635965007 [32m200 [90m110ms - 981b[0m
undefined
[90mGET /node/express/lostandfound/notification?category=Elektro&date=1525635965007 [32m200 [90m125ms - 981b[0m
[90mGET /node/express/lostandfound/notification?category=Elektro&date=1525635965007 [32m200 [90m125ms - 981b[0m
undefined
[90mGET /node/express/lostandfound/notification?category=Elektro&date=1525635965007 [32m200 [90m109ms - 981b[0m
[90mGET /node/express/lostandfound/notification?category=Elektro&date=1525635965007 [32m200 [90m109ms - 981b[0m
undefined
[90mGET /node/express/lostandfound/notification?category=Elektro&date=1525635965007 [32m200 [90m125ms - 981b[0m
[90mGET /node/express/lostandfound/notification?category=Elektro&date=1525635965007 [32m200 [90m125ms - 981b[0m
undefined
[90mGET /node/express/lostandfound/notification?category=Elektro&date=1525635965007 [32m200 [90m110ms - 981b[0m
[90mGET /node/express/lostandfound/notification?category=Elektro&date=1525635965007 [32m200 [90m110ms - 981b[0m
undefined
[90mGET /node/express/lostandfound/notification?category=Elektro&date=1525635965007 [32m200 [90m110ms - 981b[0m
[90mGET /node/express/lostandfound/notification?category=Elektro&date=1525635965007 [32m200 [90m110ms - 981b[0m
undefined
[90mGET /node/express/lostandfound/notification?category=Elektro&date=1525635965007 [32m200 [90m110ms - 981b[0m
[90mGET /node/express/lostandfound/notification?category=Elektro&date=1525635965007 [32m200 [90m110ms - 981b[0m
undefined
[90mGET /node/express/lostandfound/notification?category=Elektro&date=1525635965007 [32m200 [90m110ms - 981b[0m
[90mGET /node/express/lostandfound/notification?category=Elektro&date=1525635965007 [32m200 [90m110ms - 981b[0m
undefined
[90mGET /node/express/lostandfound/notification?category=Elektro&date=1525635965007 [32m200 [90m110ms - 981b[0m
[90mGET /node/express/lostandfound/notification?category=Elektro&date=1525635965007 [32m200 [90m110ms - 981b[0m
undefined
[90mGET /node/express/lostandfound/notification?category=Elektro&date=1525635965007 [32m200 [90m125ms - 981b[0m
[90mGET /node/express/lostandfound/notification?category=Elektro&date=1525635965007 [32m200 [90m125ms - 981b[0m
undefined
[90mGET /node/express/lostandfound/notification?category=Elektro&date=1525635965007 [32m200 [90m109ms - 981b[0m
[90mGET /node/express/lostandfound/notification?category=Elektro&date=1525635965007 [32m200 [90m109ms - 981b[0m
undefined
[90mGET /node/express/lostandfound/notification?category=Elektro&date=1525635965007 [32m200 [90m203ms - 981b[0m
[90mGET /node/express/lostandfound/notification?category=Elektro&date=1525635965007 [32m200 [90m203ms - 981b[0m
undefined
[90mGET /node/express/lostandfound/notification?category=Elektro&date=1525635965007 [32m200 [90m109ms - 981b[0m
[90mGET /node/express/lostandfound/notification?category=Elektro&date=1525635965007 [32m200 [90m109ms - 981b[0m
undefined
[90mGET /node/express/lostandfound/notification?category=Elektro&date=1525635965007 [32m200 [90m125ms - 981b[0m
[90mGET /node/express/lostandfound/notification?category=Elektro&date=1525635965007 [32m200 [90m125ms - 981b[0m
undefined
[90mGET /node/express/lostandfound/notification?category=Elektro&date=1525635965007 [32m200 [90m109ms - 981b[0m
[90mGET /node/express/lostandfound/notification?category=Elektro&date=1525635965007 [32m200 [90m109ms - 981b[0m
undefined
[90mGET /node/express/lostandfound/notification?category=Elektro&date=1525635965007 [32m200 [90m109ms - 981b[0m
[90mGET /node/express/lostandfound/notification?category=Elektro&date=1525635965007 [32m200 [90m109ms - 981b[0m
undefined
[90mGET /node/express/lostandfound/notification?category=Elektro&date=1525635965007 [32m200 [90m110ms - 981b[0m
[90mGET /node/express/lostandfound/notification?category=Elektro&date=1525635965007 [32m200 [90m110ms - 981b[0m
undefined
[90mGET /node/express/lostandfound/notification?category=Elektro&date=1525635965007 [32m200 [90m109ms - 981b[0m
[90mGET /node/express/lostandfound/notification?category=Elektro&date=1525635965007 [32m200 [90m109ms - 981b[0m
undefined
[90mGET /node/express/lostandfound/notification?category=Elektro&date=1525635965007 [32m200 [90m109ms - 981b[0m
[90mGET /node/express/lostandfound/notification?category=Elektro&date=1525635965007 [32m200 [90m109ms - 981b[0m
undefined
[90mGET /node/express/lostandfound/notification?category=Elektro&date=1525635965007 [32m200 [90m125ms - 981b[0m
[90mGET /node/express/lostandfound/notification?category=Elektro&date=1525635965007 [32m200 [90m125ms - 981b[0m
undefined
[90mGET /node/express/lostandfound/notification?category=Elektro&date=1525635965007 [32m200 [90m109ms - 981b[0m
[90mGET /node/express/lostandfound/notification?category=Elektro&date=1525635965007 [32m200 [90m109ms - 981b[0m
undefined
[90mGET /node/express/lostandfound/notification?category=Elektro&date=1525635965007 [32m200 [90m140ms - 981b[0m
[90mGET /node/express/lostandfound/notification?category=Elektro&date=1525635965007 [32m200 [90m140ms - 981b[0m
undefined
[90mGET /node/express/lostandfound/notification?category=Elektro&date=1525635965007 [32m200 [90m109ms - 981b[0m
[90mGET /node/express/lostandfound/notification?category=Elektro&date=1525635965007 [32m200 [90m109ms - 981b[0m
undefined
[90mGET /node/express/lostandfound/notification?category=Elektro&date=1525635965007 [32m200 [90m125ms - 981b[0m
[90mGET /node/express/lostandfound/notification?category=Elektro&date=1525635965007 [32m200 [90m125ms - 981b[0m
undefined
[90mGET /node/express/lostandfound/notification?category=Elektro&date=1525635965007 [32m200 [90m109ms - 981b[0m
[90mGET /node/express/lostandfound/notification?category=Elektro&date=1525635965007 [32m200 [90m109ms - 981b[0m
undefined
[90mGET /node/express/lostandfound/notification?category=Elektro&date=1525635965007 [32m200 [90m110ms - 981b[0m
[90mGET /node/express/lostandfound/notification?category=Elektro&date=1525635965007 [32m200 [90m110ms - 981b[0m
undefined
[90mGET /node/express/lostandfound/notification?category=Elektro&date=1525635965007 [32m200 [90m109ms - 981b[0m
[90mGET /node/express/lostandfound/notification?category=Elektro&date=1525635965007 [32m200 [90m109ms - 981b[0m
undefined
[90mGET /node/express/lostandfound/notification?category=Elektro&date=1525635965007 [32m200 [90m125ms - 981b[0m
[90mGET /node/express/lostandfound/notification?category=Elektro&date=1525635965007 [32m200 [90m125ms - 981b[0m
undefined
[90mGET /node/express/lostandfound/notification?category=Elektro&date=1525635965007 [32m200 [90m110ms - 981b[0m
[90mGET /node/express/lostandfound/notification?category=Elektro&date=1525635965007 [32m200 [90m110ms - 981b[0m
undefined
[90mGET /node/express/lostandfound/notification?category=Elektro&date=1525635965007 [32m200 [90m109ms - 981b[0m
[90mGET /node/express/lostandfound/notification?category=Elektro&date=1525635965007 [32m200 [90m125ms - 981b[0m
undefined
[90mGET /node/express/lostandfound/notification?category=Elektro&date=1525635965007 [32m200 [90m109ms - 981b[0m
[90mGET /node/express/lostandfound/notification?category=Elektro&date=1525635965007 [32m200 [90m109ms - 981b[0m
undefined
[90mGET /node/express/lostandfound/notification?category=Elektro&date=1525635965007 [32m200 [90m172ms - 981b[0m
[90mGET /node/express/lostandfound/notification?category=Elektro&date=1525635965007 [32m200 [90m172ms - 981b[0m
undefined
[90mGET /node/express/lostandfound/notification?category=Elektro&date=1525635965007 [32m200 [90m109ms - 981b[0m
[90mGET /node/express/lostandfound/notification?category=Elektro&date=1525635965007 [32m200 [90m109ms - 981b[0m
undefined
[90mGET /node/express/lostandfound/notification?category=Elektro&date=1525635965007 [32m200 [90m110ms - 981b[0m
[90mGET /node/express/lostandfound/notification?category=Elektro&date=1525635965007 [32m200 [90m110ms - 981b[0m
undefined
[90mGET /node/express/lostandfound/notification?category=Elektro&date=1525635965007 [32m200 [90m109ms - 981b[0m
[90mGET /node/express/lostandfound/notification?category=Elektro&date=1525635965007 [32m200 [90m109ms - 981b[0m
undefined
[90mGET /node/express/lostandfound/notification?category=Elektro&date=1525635965007 [32m200 [90m110ms - 981b[0m
[90mGET /node/express/lostandfound/notification?category=Elektro&date=1525635965007 [32m200 [90m110ms - 981b[0m
undefined
[90mGET /node/express/lostandfound/notification?category=Elektro&date=1525635965007 [32m200 [90m109ms - 981b[0m
[90mGET /node/express/lostandfound/notification?category=Elektro&date=1525635965007 [32m200 [90m109ms - 981b[0m
undefined
[90mGET /node/express/lostandfound/notification?category=Elektro&date=1525635965007 [32m200 [90m125ms - 981b[0m
[90mGET /node/express/lostandfound/notification?category=Elektro&date=1525635965007 [32m200 [90m125ms - 981b[0m
undefined
[90mGET /node/express/lostandfound/notification?category=Elektro&date=1525635965007 [32m200 [90m109ms - 981b[0m
[90mGET /node/express/lostandfound/notification?category=Elektro&date=1525635965007 [32m200 [90m109ms - 981b[0m
undefined
[90mGET /node/express/lostandfound/notification?category=Elektro&date=1525635965007 [32m200 [90m110ms - 981b[0m
[90mGET /node/express/lostandfound/notification?category=Elektro&date=1525635965007 [32m200 [90m110ms - 981b[0m
undefined
[90mGET /node/express/lostandfound/notification?category=Elektro&date=1525635965007 [32m200 [90m104ms - 981b[0m
[90mGET /node/express/lostandfound/notification?category=Elektro&date=1525635965007 [32m200 [90m104ms - 981b[0m
undefined
[90mGET /node/express/lostandfound/notification?category=Elektro&date=1525635965007 [32m200 [90m125ms - 981b[0m
[90mGET /node/express/lostandfound/notification?category=Elektro&date=1525635965007 [32m200 [90m125ms - 981b[0m
undefined
[90mGET /node/express/lostandfound/notification?category=Elektro&date=1525635965007 [32m200 [90m103ms - 981b[0m
[90mGET /node/express/lostandfound/notification?category=Elektro&date=1525635965007 [32m200 [90m103ms - 981b[0m
undefined
[90mGET /node/express/lostandfound/notification?category=Elektro&date=1525635965007 [32m200 [90m125ms - 981b[0m
[90mGET /node/express/lostandfound/notification?category=Elektro&date=1525635965007 [32m200 [90m125ms - 981b[0m
undefined
[90mGET /node/express/lostandfound/notification?category=Elektro&date=1525635965007 [32m200 [90m109ms - 981b[0m
[90mGET /node/express/lostandfound/notification?category=Elektro&date=1525635965007 [32m200 [90m109ms - 981b[0m
undefined
[90mGET /node/express/lostandfound/notification?category=Elektro&date=1525635965007 [32m200 [90m125ms - 981b[0m
[90mGET /node/express/lostandfound/notification?category=Elektro&date=1525635965007 [32m200 [90m125ms - 981b[0m
undefined
[90mGET /node/express/lostandfound/notification?category=Elektro&date=1525635965007 [32m200 [90m109ms - 981b[0m
[90mGET /node/express/lostandfound/notification?category=Elektro&date=1525635965007 [32m200 [90m109ms - 981b[0m
undefined
[90mGET /node/express/lostandfound/notification?category=Elektro&date=1525635965007 [32m200 [90m109ms - 981b[0m
[90mGET /node/express/lostandfound/notification?category=Elektro&date=1525635965007 [32m200 [90m125ms - 981b[0m
undefined
[90mGET /node/express/lostandfound/notification?category=Elektro&date=1525635965007 [32m200 [90m110ms - 981b[0m
[90mGET /node/express/lostandfound/notification?category=Elektro&date=1525635965007 [32m200 [90m110ms - 981b[0m
undefined
[90mGET /node/express/lostandfound/notification?category=Elektro&date=1525635965007 [32m200 [90m110ms - 981b[0m
[90mGET /node/express/lostandfound/notification?category=Elektro&date=1525635965007 [32m200 [90m110ms - 981b[0m
undefined
[90mGET /node/express/lostandfound/notification?category=Elektro&date=1525635965007 [32m200 [90m110ms - 981b[0m
[90mGET /node/express/lostandfound/notification?category=Elektro&date=1525635965007 [32m200 [90m110ms - 981b[0m
undefined
[90mGET /node/express/lostandfound/notification?category=Elektro&date=1525635965007 [32m200 [90m109ms - 981b[0m
[90mGET /node/express/lostandfound/notification?category=Elektro&date=1525635965007 [32m200 [90m109ms - 981b[0m
undefined
[90mGET /node/express/lostandfound/notification?category=Elektro&date=1525635965007 [32m200 [90m110ms - 981b[0m
[90mGET /node/express/lostandfound/notification?category=Elektro&date=1525635965007 [32m200 [90m110ms - 981b[0m
undefined
[90mGET /node/express/lostandfound/notification?category=Elektro&date=1525635965007 [32m200 [90m109ms - 981b[0m
[90mGET /node/express/lostandfound/notification?category=Elektro&date=1525635965007 [32m200 [90m125ms - 981b[0m
undefined
[90mGET /node/express/lostandfound/notification?category=Elektro&date=1525635965007 [32m200 [90m109ms - 981b[0m
[90mGET /node/express/lostandfound/notification?category=Elektro&date=1525635965007 [32m200 [90m109ms - 981b[0m
undefined
[90mGET /node/express/lostandfound/notification?category=Elektro&date=1525635965007 [32m200 [90m109ms - 981b[0m
[90mGET /node/express/lostandfound/notification?category=Elektro&date=1525635965007 [32m200 [90m109ms - 981b[0m
undefined
[90mGET /node/express/lostandfound/notification?category=Elektro&date=1525635965007 [32m200 [90m109ms - 981b[0m
[90mGET /node/express/lostandfound/notification?category=Elektro&date=1525635965007 [32m200 [90m109ms - 981b[0m
undefined
[90mGET /node/express/lostandfound/notification?category=Elektro&date=1525635965007 [32m200 [90m109ms - 981b[0m
[90mGET /node/express/lostandfound/notification?category=Elektro&date=1525635965007 [32m200 [90m109ms - 981b[0m
undefined
[90mGET /node/express/lostandfound/notification?category=Elektro&date=1525635965007 [32m200 [90m110ms - 981b[0m
[90mGET /node/express/lostandfound/notification?category=Elektro&date=1525635965007 [32m200 [90m110ms - 981b[0m
undefined
[90mGET /node/express/lostandfound/notification?category=Elektro&date=1525635965007 [32m200 [90m125ms - 981b[0m
[90mGET /node/express/lostandfound/notification?category=Elektro&date=1525635965007 [32m200 [90m125ms - 981b[0m
undefined
[90mGET /node/express/lostandfound/notification?category=Elektro&date=1525635965007 [32m200 [90m109ms - 981b[0m
[90mGET /node/express/lostandfound/notification?category=Elektro&date=1525635965007 [32m200 [90m109ms - 981b[0m
undefined
[90mGET /node/express/lostandfound/notification?category=Elektro&date=1525635965007 [32m200 [90m109ms - 981b[0m
[90mGET /node/express/lostandfound/notification?category=Elektro&date=1525635965007 [32m200 [90m109ms - 981b[0m
undefined
[90mGET /node/express/lostandfound/notification?category=Elektro&date=1525635965007 [32m200 [90m109ms - 981b[0m
[90mGET /node/express/lostandfound/notification?category=Elektro&date=1525635965007 [32m200 [90m109ms - 981b[0m
undefined
[90mGET /node/express/lostandfound/notification?category=Elektro&date=1525635965007 [32m200 [90m109ms - 981b[0m
[90mGET /node/express/lostandfound/notification?category=Elektro&date=1525635965007 [32m200 [90m109ms - 981b[0m
undefined
[90mGET /node/express/lostandfound/notification?category=Elektro&date=1525635965007 [32m200 [90m110ms - 981b[0m
[90mGET /node/express/lostandfound/notification?category=Elektro&date=1525635965007 [32m200 [90m110ms - 981b[0m
undefined
[90mGET /node/express/lostandfound/notification?category=Elektro&date=1525635965007 [32m200 [90m125ms - 981b[0m
[90mGET /node/express/lostandfound/notification?category=Elektro&date=1525635965007 [32m200 [90m125ms - 981b[0m
undefined
[90mGET /node/express/lostandfound/notification?category=Elektro&date=1525635965007 [32m200 [90m203ms - 981b[0m
[90mGET /node/express/lostandfound/notification?category=Elektro&date=1525635965007 [32m200 [90m203ms - 981b[0m
undefined
[90mGET /node/express/lostandfound/notification?category=Elektro&date=1525635965007 [32m200 [90m109ms - 981b[0m
[90mGET /node/express/lostandfound/notification?category=Elektro&date=1525635965007 [32m200 [90m109ms - 981b[0m
undefined
[90mGET /node/express/lostandfound/notification?category=Elektro&date=1525635965007 [32m200 [90m109ms - 981b[0m
[90mGET /node/express/lostandfound/notification?category=Elektro&date=1525635965007 [32m200 [90m109ms - 981b[0m
undefined
[90mGET /node/express/lostandfound/notification?category=Elektro&date=1525635965007 [32m200 [90m109ms - 981b[0m
[90mGET /node/express/lostandfound/notification?category=Elektro&date=1525635965007 [32m200 [90m109ms - 981b[0m
undefined
[90mGET /node/express/lostandfound/notification?category=Elektro&date=1525635965007 [32m200 [90m109ms - 981b[0m
[90mGET /node/express/lostandfound/notification?category=Elektro&date=1525635965007 [32m200 [90m109ms - 981b[0m
undefined
[90mGET /node/express/lostandfound/notification?category=Elektro&date=1525635965007 [32m200 [90m109ms - 981b[0m
[90mGET /node/express/lostandfound/notification?category=Elektro&date=1525635965007 [32m200 [90m109ms - 981b[0m
undefined
[90mGET /node/express/lostandfound/notification?category=Elektro&date=1525635965007 [32m200 [90m110ms - 981b[0m
[90mGET /node/express/lostandfound/notification?category=Elektro&date=1525635965007 [32m200 [90m110ms - 981b[0m
undefined
[90mGET /node/express/lostandfound/notification?category=Elektro&date=1525635965007 [32m200 [90m125ms - 981b[0m
[90mGET /node/express/lostandfound/notification?category=Elektro&date=1525635965007 [32m200 [90m125ms - 981b[0m
undefined
[90mGET /node/express/lostandfound/notification?category=Elektro&date=1525635965007 [32m200 [90m109ms - 981b[0m
[90mGET /node/express/lostandfound/notification?category=Elektro&date=1525635965007 [32m200 [90m109ms - 981b[0m
undefined
[90mGET /node/express/lostandfound/notification?category=Elektro&date=1525635965007 [32m200 [90m110ms - 981b[0m
[90mGET /node/express/lostandfound/notification?category=Elektro&date=1525635965007 [32m200 [90m110ms - 981b[0m
undefined
[90mGET /node/express/lostandfound/notification?category=Elektro&date=1525635965007 [32m200 [90m109ms - 981b[0m
[90mGET /node/express/lostandfound/notification?category=Elektro&date=1525635965007 [32m200 [90m109ms - 981b[0m
undefined
[90mGET /node/express/lostandfound/notification?category=Elektro&date=1525635965007 [32m200 [90m109ms - 981b[0m
[90mGET /node/express/lostandfound/notification?category=Elektro&date=1525635965007 [32m200 [90m109ms - 981b[0m
undefined
[90mGET /node/express/lostandfound/notification?category=Elektro&date=1525635965007 [32m200 [90m109ms - 981b[0m
[90mGET /node/express/lostandfound/notification?category=Elektro&date=1525635965007 [32m200 [90m109ms - 981b[0m
undefined
[90mGET /node/express/lostandfound/notification?category=Elektro&date=1525635965007 [32m200 [90m157ms - 981b[0m
[90mGET /node/express/lostandfound/notification?category=Elektro&date=1525635965007 [32m200 [90m157ms - 981b[0m
undefined
[90mGET /node/express/lostandfound/notification?category=Elektro&date=1525635965007 [32m200 [90m110ms - 981b[0m
[90mGET /node/express/lostandfound/notification?category=Elektro&date=1525635965007 [32m200 [90m110ms - 981b[0m
undefined
[90mGET /node/express/lostandfound/notification?category=Elektro&date=1525635965007 [32m200 [90m109ms - 981b[0m
[90mGET /node/express/lostandfound/notification?category=Elektro&date=1525635965007 [32m200 [90m109ms - 981b[0m
undefined
[90mGET /node/express/lostandfound/notification?category=Elektro&date=1525635965007 [32m200 [90m110ms - 981b[0m
[90mGET /node/express/lostandfound/notification?category=Elektro&date=1525635965007 [32m200 [90m110ms - 981b[0m
undefined
[90mGET /node/express/lostandfound/notification?category=Elektro&date=1525635965007 [32m200 [90m109ms - 981b[0m
[90mGET /node/express/lostandfound/notification?category=Elektro&date=1525635965007 [32m200 [90m109ms - 981b[0m
undefined
[90mGET /node/express/lostandfound/notification?category=Elektro&date=1525635965007 [32m200 [90m109ms - 981b[0m
[90mGET /node/express/lostandfound/notification?category=Elektro&date=1525635965007 [32m200 [90m109ms - 981b[0m
undefined
[90mGET /node/express/lostandfound/notification?category=Elektro&date=1525635965007 [32m200 [90m109ms - 981b[0m
[90mGET /node/express/lostandfound/notification?category=Elektro&date=1525635965007 [32m200 [90m109ms - 981b[0m
undefined
[90mGET /node/express/lostandfound/notification?category=Elektro&date=1525635965007 [32m200 [90m110ms - 981b[0m
[90mGET /node/express/lostandfound/notification?category=Elektro&date=1525635965007 [32m200 [90m110ms - 981b[0m
undefined
[90mGET /node/express/lostandfound/notification?category=Elektro&date=1525635965007 [32m200 [90m110ms - 981b[0m
[90mGET /node/express/lostandfound/notification?category=Elektro&date=1525635965007 [32m200 [90m125ms - 981b[0m
undefined
[90mGET /node/express/lostandfound/notification?category=Elektro&date=1525635965007 [32m200 [90m109ms - 981b[0m
[90mGET /node/express/lostandfound/notification?category=Elektro&date=1525635965007 [32m200 [90m109ms - 981b[0m
undefined
[90mGET /node/express/lostandfound/notification?category=Elektro&date=1525635965007 [32m200 [90m109ms - 981b[0m
[90mGET /node/express/lostandfound/notification?category=Elektro&date=1525635965007 [32m200 [90m125ms - 981b[0m
undefined
[90mGET /node/express/lostandfound/notification?category=Elektro&date=1525635965007 [32m200 [90m109ms - 981b[0m
[90mGET /node/express/lostandfound/notification?category=Elektro&date=1525635965007 [32m200 [90m109ms - 981b[0m
undefined
[90mGET /node/express/lostandfound/notification?category=Elektro&date=1525635965007 [32m200 [90m109ms - 981b[0m
[90mGET /node/express/lostandfound/notification?category=Elektro&date=1525635965007 [32m200 [90m125ms - 981b[0m
undefined
[90mGET /node/express/lostandfound/notification?category=Elektro&date=1525635965007 [32m200 [90m109ms - 981b[0m
[90mGET /node/express/lostandfound/notification?category=Elektro&date=1525635965007 [32m200 [90m109ms - 981b[0m
undefined
[90mGET /node/express/lostandfound/notification?category=Elektro&date=1525635965007 [32m200 [90m125ms - 981b[0m
[90mGET /node/express/lostandfound/notification?category=Elektro&date=1525635965007 [32m200 [90m125ms - 981b[0m
undefined
[90mGET /node/express/lostandfound/notification?category=Elektro&date=1525635965007 [32m200 [90m109ms - 981b[0m
[90mGET /node/express/lostandfound/notification?category=Elektro&date=1525635965007 [32m200 [90m109ms - 981b[0m
undefined
[90mGET /node/express/lostandfound/notification?category=Elektro&date=1525635965007 [32m200 [90m188ms - 981b[0m
[90mGET /node/express/lostandfound/notification?category=Elektro&date=1525635965007 [32m200 [90m282ms - 981b[0m
undefined
[90mGET /node/express/lostandfound/notification?category=Elektro&date=1525635965007 [32m200 [90m209ms - 981b[0m
[90mGET /node/express/lostandfound/notification?category=Elektro&date=1525635965007 [32m200 [90m287ms - 981b[0m
undefined
[90mGET /node/express/lostandfound/notification?category=Elektro&date=1525635965007 [32m200 [90m156ms - 981b[0m
[90mGET /node/express/lostandfound/notification?category=Elektro&date=1525635965007 [32m200 [90m187ms - 981b[0m
undefined
[90mGET /node/express/lostandfound/notification?category=Elektro&date=1525635965007 [32m200 [90m109ms - 981b[0m
[90mGET /node/express/lostandfound/notification?category=Elektro&date=1525635965007 [32m200 [90m187ms - 981b[0m
undefined
[90mGET /node/express/lostandfound/notification?category=Elektro&date=1525635965007 [32m200 [90m235ms - 981b[0m
[90mGET /node/express/lostandfound/notification?category=Elektro&date=1525635965007 [32m200 [90m235ms - 981b[0m
undefined
[90mGET /node/express/lostandfound/notification?category=Elektro&date=1525635965007 [32m200 [90m156ms - 981b[0m
[90mGET /node/express/lostandfound/notification?category=Elektro&date=1525635965007 [32m200 [90m172ms - 981b[0m
undefined
[90mGET /node/express/lostandfound/notification?category=Elektro&date=1525635965007 [32m200 [90m125ms - 981b[0m
[90mGET /node/express/lostandfound/notification?category=Elektro&date=1525635965007 [32m200 [90m156ms - 981b[0m
undefined
[90mGET /node/express/lostandfound/notification?category=Elektro&date=1525635965007 [32m200 [90m109ms - 981b[0m
[90mGET /node/express/lostandfound/notification?category=Elektro&date=1525635965007 [32m200 [90m109ms - 981b[0m
undefined
[90mGET /node/express/lostandfound/notification?category=Elektro&date=1525635965007 [32m200 [90m109ms - 981b[0m
[90mGET /node/express/lostandfound/notification?category=Elektro&date=1525635965007 [32m200 [90m109ms - 981b[0m
undefined
[90mGET /node/express/lostandfound/notification?category=Elektro&date=1525635965007 [32m200 [90m109ms - 981b[0m
[90mGET /node/express/lostandfound/notification?category=Elektro&date=1525635965007 [32m200 [90m109ms - 981b[0m
undefined
[90mGET /node/express/lostandfound/notification?category=Elektro&date=1525635965007 [32m200 [90m110ms - 981b[0m
[90mGET /node/express/lostandfound/notification?category=Elektro&date=1525635965007 [32m200 [90m110ms - 981b[0m
undefined
[90mGET /node/express/lostandfound/notification?category=Elektro&date=1525635965007 [32m200 [90m109ms - 981b[0m
[90mGET /node/express/lostandfound/notification?category=Elektro&date=1525635965007 [32m200 [90m109ms - 981b[0m
undefined
[90mGET /node/express/lostandfound/notification?category=Elektro&date=1525635965007 [32m200 [90m125ms - 981b[0m
[90mGET /node/express/lostandfound/notification?category=Elektro&date=1525635965007 [32m200 [90m125ms - 981b[0m
undefined
[90mGET /node/express/lostandfound/notification?category=Elektro&date=1525635965007 [32m200 [90m109ms - 981b[0m
[90mGET /node/express/lostandfound/notification?category=Elektro&date=1525635965007 [32m200 [90m109ms - 981b[0m
undefined
[90mGET /node/express/lostandfound/notification?category=Elektro&date=1525635965007 [32m200 [90m110ms - 981b[0m
[90mGET /node/express/lostandfound/notification?category=Elektro&date=1525635965007 [32m200 [90m110ms - 981b[0m
undefined
[90mGET /node/express/lostandfound/notification?category=Elektro&date=1525635965007 [32m200 [90m109ms - 981b[0m
[90mGET /node/express/lostandfound/notification?category=Elektro&date=1525635965007 [32m200 [90m109ms - 981b[0m
undefined
[90mGET /node/express/lostandfound/notification?category=Elektro&date=1525635965007 [32m200 [90m109ms - 981b[0m
[90mGET /node/express/lostandfound/notification?category=Elektro&date=1525635965007 [32m200 [90m125ms - 981b[0m
undefined
[90mGET /node/express/lostandfound/notification?category=Elektro&date=1525635965007 [32m200 [90m109ms - 981b[0m
[90mGET /node/express/lostandfound/notification?category=Elektro&date=1525635965007 [32m200 [90m109ms - 981b[0m
undefined
[90mGET /node/express/lostandfound/notification?category=Elektro&date=1525635965007 [32m200 [90m109ms - 981b[0m
[90mGET /node/express/lostandfound/notification?category=Elektro&date=1525635965007 [32m200 [90m109ms - 981b[0m
undefined
[90mGET /node/express/lostandfound/notification?category=Elektro&date=1525635965007 [32m200 [90m109ms - 981b[0m
[90mGET /node/express/lostandfound/notification?category=Elektro&date=1525635965007 [32m200 [90m109ms - 981b[0m
undefined
[90mGET /node/express/lostandfound/notification?category=Elektro&date=1525635965007 [32m200 [90m125ms - 981b[0m
[90mGET /node/express/lostandfound/notification?category=Elektro&date=1525635965007 [32m200 [90m125ms - 981b[0m
undefined
[90mGET /node/express/lostandfound/notification?category=Elektro&date=1525635965007 [32m200 [90m109ms - 981b[0m
[90mGET /node/express/lostandfound/notification?category=Elektro&date=1525635965007 [32m200 [90m109ms - 981b[0m
undefined
[90mGET /node/express/lostandfound/notification?category=Elektro&date=1525635965007 [32m200 [90m125ms - 981b[0m
[90mGET /node/express/lostandfound/notification?category=Elektro&date=1525635965007 [32m200 [90m125ms - 981b[0m
undefined
[90mGET /node/express/lostandfound/notification?category=Elektro&date=1525635965007 [32m200 [90m109ms - 981b[0m
[90mGET /node/express/lostandfound/notification?category=Elektro&date=1525635965007 [32m200 [90m109ms - 981b[0m
undefined
[90mGET /node/express/lostandfound/notification?category=Elektro&date=1525635965007 [32m200 [90m125ms - 981b[0m
[90mGET /node/express/lostandfound/notification?category=Elektro&date=1525635965007 [32m200 [90m125ms - 981b[0m
undefined
[90mGET /node/express/lostandfound/notification?category=Elektro&date=1525635965007 [32m200 [90m109ms - 981b[0m
[90mGET /node/express/lostandfound/notification?category=Elektro&date=1525635965007 [32m200 [90m109ms - 981b[0m
undefined
[90mGET /node/express/lostandfound/notification?category=Elektro&date=1525635965007 [32m200 [90m125ms - 981b[0m
[90mGET /node/express/lostandfound/notification?category=Elektro&date=1525635965007 [32m200 [90m125ms - 981b[0m
undefined
[90mGET /node/express/lostandfound/notification?category=Elektro&date=1525635965007 [32m200 [90m109ms - 981b[0m
[90mGET /node/express/lostandfound/notification?category=Elektro&date=1525635965007 [32m200 [90m109ms - 981b[0m
undefined
[90mGET /node/express/lostandfound/notification?category=Elektro&date=1525635965007 [32m200 [90m110ms - 981b[0m
[90mGET /node/express/lostandfound/notification?category=Elektro&date=1525635965007 [32m200 [90m125ms - 981b[0m
undefined
[90mGET /node/express/lostandfound/notification?category=Elektro&date=1525635965007 [32m200 [90m109ms - 981b[0m
[90mGET /node/express/lostandfound/notification?category=Elektro&date=1525635965007 [32m200 [90m125ms - 981b[0m
undefined
[90mGET /node/express/lostandfound/notification?category=Elektro&date=1525635965007 [32m200 [90m110ms - 981b[0m
[90mGET /node/express/lostandfound/notification?category=Elektro&date=1525635965007 [32m200 [90m110ms - 981b[0m
undefined
[90mGET /node/express/lostandfound/notification?category=Elektro&date=1525635965007 [32m200 [90m109ms - 981b[0m
[90mGET /node/express/lostandfound/notification?category=Elektro&date=1525635965007 [32m200 [90m109ms - 981b[0m
undefined
[90mGET /node/express/lostandfound/notification?category=Elektro&date=1525635965007 [32m200 [90m125ms - 981b[0m
[90mGET /node/express/lostandfound/notification?category=Elektro&date=1525635965007 [32m200 [90m125ms - 981b[0m
undefined
[90mGET /node/express/lostandfound/notification?category=Elektro&date=1525635965007 [32m200 [90m110ms - 981b[0m
[90mGET /node/express/lostandfound/notification?category=Elektro&date=1525635965007 [32m200 [90m110ms - 981b[0m
undefined
[90mGET /node/express/lostandfound/notification?category=Elektro&date=1525635965007 [32m200 [90m108ms - 981b[0m
[90mGET /node/express/lostandfound/notification?category=Elektro&date=1525635965007 [32m200 [90m108ms - 981b[0m
